t,schemaname,tablename,relation_size_main,relation_size_fsm,relation_size_vm,relation_size_init,indexes_size,table_size,total_relation_size
pg_catalog.pg_database,pg_catalog,pg_database,8192,24576,8192,0,32768,40960,73728
pg_catalog.pg_statistic,pg_catalog,pg_statistic,15925248,24576,8192,0,106496,65495040,65601536
pg_catalog.pg_type,pg_catalog,pg_type,294912,24576,8192,0,147456,327680,475136
pg_catalog.pg_authid,pg_catalog,pg_authid,8192,24576,8192,0,32768,40960,73728
public.milestone_releases,public,milestone_releases,24576,24576,8192,0,65536,57344,122880
public.users_statistics,public,users_statistics,0,0,0,0,8192,0,8192
pg_catalog.pg_user_mapping,pg_catalog,pg_user_mapping,0,0,0,0,16384,0,16384
pg_catalog.pg_attribute,pg_catalog,pg_attribute,2531328,24576,8192,0,974848,2564096,3538944
pg_catalog.pg_proc,pg_catalog,pg_proc,786432,24576,8192,0,327680,843776,1171456
pg_catalog.pg_class,pg_catalog,pg_class,638976,24576,8192,0,565248,671744,1236992
pg_catalog.pg_attrdef,pg_catalog,pg_attrdef,286720,24576,8192,0,81920,327680,409600
pg_catalog.pg_constraint,pg_catalog,pg_constraint,196608,24576,8192,0,180224,237568,417792
pg_catalog.pg_inherits,pg_catalog,pg_inherits,0,0,0,0,16384,0,16384
pg_catalog.pg_index,pg_catalog,pg_index,368640,24576,8192,0,114688,401408,516096
pg_catalog.pg_operator,pg_catalog,pg_operator,122880,24576,8192,0,81920,155648,237568
pg_catalog.pg_opfamily,pg_catalog,pg_opfamily,16384,24576,8192,0,32768,49152,81920
pg_catalog.pg_opclass,pg_catalog,pg_opclass,32768,24576,8192,0,32768,65536,98304
pg_catalog.pg_am,pg_catalog,pg_am,8192,24576,8192,0,32768,40960,73728
pg_catalog.pg_amop,pg_catalog,pg_amop,57344,24576,8192,0,139264,90112,229376
pg_catalog.pg_amproc,pg_catalog,pg_amproc,40960,24576,8192,0,73728,73728,147456
pg_catalog.pg_language,pg_catalog,pg_language,8192,24576,8192,0,32768,40960,73728
pg_catalog.pg_largeobject_metadata,pg_catalog,pg_largeobject_metadata,0,0,0,0,8192,0,8192
pg_catalog.pg_aggregate,pg_catalog,pg_aggregate,16384,24576,8192,0,16384,49152,65536
pg_catalog.pg_rewrite,pg_catalog,pg_rewrite,114688,24576,8192,0,32768,598016,630784
pg_catalog.pg_largeobject,pg_catalog,pg_largeobject,0,0,0,0,8192,0,8192
pg_catalog.pg_trigger,pg_catalog,pg_trigger,327680,24576,8192,0,270336,425984,696320
pg_catalog.pg_event_trigger,pg_catalog,pg_event_trigger,0,0,0,0,16384,0,16384
pg_catalog.pg_description,pg_catalog,pg_description,278528,24576,8192,0,139264,319488,458752
pg_catalog.pg_cast,pg_catalog,pg_cast,16384,24576,8192,0,32768,49152,81920
pg_catalog.pg_enum,pg_catalog,pg_enum,0,0,0,0,24576,0,24576
pg_catalog.pg_namespace,pg_catalog,pg_namespace,65536,24576,8192,0,73728,98304,172032
pg_catalog.pg_conversion,pg_catalog,pg_conversion,24576,24576,8192,0,49152,57344,106496
pg_catalog.pg_depend,pg_catalog,pg_depend,1097728,24576,8192,0,1179648,1130496,2310144
pg_catalog.pg_db_role_setting,pg_catalog,pg_db_role_setting,40960,24576,8192,0,16384,81920,98304
pg_catalog.pg_tablespace,pg_catalog,pg_tablespace,8192,24576,8192,0,32768,40960,73728
pg_catalog.pg_pltemplate,pg_catalog,pg_pltemplate,8192,24576,8192,0,16384,40960,57344
pg_catalog.pg_auth_members,pg_catalog,pg_auth_members,0,16384,0,0,16384,16384,32768
pg_catalog.pg_shdepend,pg_catalog,pg_shdepend,155648,24576,8192,0,172032,188416,360448
pg_catalog.pg_shdescription,pg_catalog,pg_shdescription,8192,24576,8192,0,16384,49152,65536
pg_catalog.pg_ts_config,pg_catalog,pg_ts_config,8192,24576,8192,0,32768,40960,73728
pg_catalog.pg_ts_config_map,pg_catalog,pg_ts_config_map,16384,24576,8192,0,32768,49152,81920
pg_catalog.pg_ts_dict,pg_catalog,pg_ts_dict,8192,24576,8192,0,32768,40960,73728
pg_catalog.pg_ts_parser,pg_catalog,pg_ts_parser,8192,24576,8192,0,32768,40960,73728
pg_catalog.pg_ts_template,pg_catalog,pg_ts_template,8192,24576,8192,0,32768,40960,73728
pg_catalog.pg_extension,pg_catalog,pg_extension,8192,24576,8192,0,32768,40960,73728
pg_catalog.pg_foreign_data_wrapper,pg_catalog,pg_foreign_data_wrapper,8192,24576,8192,0,32768,40960,73728
pg_catalog.pg_foreign_server,pg_catalog,pg_foreign_server,0,0,0,0,16384,0,16384
pg_catalog.pg_foreign_table,pg_catalog,pg_foreign_table,0,0,0,0,8192,0,8192
pg_catalog.pg_policy,pg_catalog,pg_policy,0,0,0,0,16384,0,16384
pg_catalog.pg_replication_origin,pg_catalog,pg_replication_origin,0,0,0,0,16384,0,16384
pg_catalog.pg_default_acl,pg_catalog,pg_default_acl,8192,24576,8192,0,32768,40960,73728
pg_catalog.pg_init_privs,pg_catalog,pg_init_privs,16384,24576,8192,0,16384,49152,65536
pg_catalog.pg_seclabel,pg_catalog,pg_seclabel,0,0,0,0,8192,8192,16384
pg_catalog.pg_shseclabel,pg_catalog,pg_shseclabel,0,0,0,0,8192,8192,16384
pg_catalog.pg_collation,pg_catalog,pg_collation,8192,24576,8192,0,32768,40960,73728
pg_catalog.pg_range,pg_catalog,pg_range,8192,24576,8192,0,16384,40960,57344
pg_catalog.pg_transform,pg_catalog,pg_transform,0,0,0,0,16384,0,16384
information_schema.sql_features,information_schema,sql_features,57344,24576,8192,0,0,98304,98304
information_schema.sql_implementation_info,information_schema,sql_implementation_info,8192,24576,8192,0,0,49152,49152
information_schema.sql_languages,information_schema,sql_languages,8192,24576,8192,0,0,49152,49152
information_schema.sql_packages,information_schema,sql_packages,8192,24576,8192,0,0,49152,49152
information_schema.sql_parts,information_schema,sql_parts,8192,24576,8192,0,0,49152,49152
information_schema.sql_sizing,information_schema,sql_sizing,8192,24576,8192,0,0,49152,49152
information_schema.sql_sizing_profiles,information_schema,sql_sizing_profiles,0,0,0,0,0,8192,8192
public.grafana_integrations,public,grafana_integrations,32768,24576,8192,0,49152,73728,122880
public.geo_hashed_storage_migrated_events,public,geo_hashed_storage_migrated_events,0,0,0,0,16384,8192,24576
public.group_deletion_schedules,public,group_deletion_schedules,49152,24576,8192,0,122880,81920,204800
public.alerts_service_data,public,alerts_service_data,24576,24576,8192,0,32768,65536,98304
public.schema_migrations,public,schema_migrations,114688,24576,8192,0,98304,155648,253952
public.events,public,events,44455649280,10944512,1359872,0,128773095424,44467961856,173241057280
public.oauth_openid_requests,public,oauth_openid_requests,147456,24576,8192,0,81920,188416,270336
public.approval_merge_request_rules_users,public,approval_merge_request_rules_users,929456128,245760,32768,0,1347616768,929734656,2277351424
public.external_pull_requests,public,external_pull_requests,15376384,24576,8192,0,6889472,15417344,22306816
public.group_group_links,public,group_group_links,221184,24576,8192,0,270336,253952,524288
public.analytics_language_trend_repository_languages,public,analytics_language_trend_repository_languages,0,0,0,0,16384,0,16384
public.issues_prometheus_alert_events,public,issues_prometheus_alert_events,122880,24576,8192,0,131072,155648,286720
public.ci_resources,public,ci_resources,1277952,24576,8192,0,1630208,1310720,2940928
public.packages_conan_metadata,public,packages_conan_metadata,8192,24576,8192,0,32768,49152,81920
public.ci_pipelines_config,public,ci_pipelines_config,1929093120,491520,65536,0,1122779136,1929658368,3052437504
public.prometheus_alert_events,public,prometheus_alert_events,212992,24576,8192,0,294912,253952,548864
public.project_daily_statistics,public,project_daily_statistics,2530951168,638976,81920,0,2052227072,2531672064,4583899136
public.services,public,services,1817518080,466944,57344,0,541188096,1818181632,2359369728
public.smartcard_identities,public,smartcard_identities,0,0,0,0,24576,8192,32768
public.project_settings,public,project_settings,692551680,188416,24576,0,293519360,692764672,986284032
public.lfs_file_locks,public,lfs_file_locks,1900544,24576,8192,0,606208,1941504,2547712
public.insights,public,insights,8192,24576,8192,0,49152,40960,90112
public.ci_variables,public,ci_variables,267124736,90112,8192,0,86466560,930627584,1017094144
public.evidences,public,evidences,73359360,40960,8192,0,5357568,84148224,89505792
public.merge_request_blocks,public,merge_request_blocks,557056,24576,8192,0,663552,589824,1253376
public.dependency_proxy_blobs,public,dependency_proxy_blobs,16384,24576,8192,0,32768,57344,90112
public.pages_domain_acme_orders,public,pages_domain_acme_orders,499712,24576,8192,0,237568,9994240,10231808
public.ci_builds,public,ci_builds,521426894848,128188416,15949824,0,308653342720,671746424832,980399767552
public.project_incident_management_settings,public,project_incident_management_settings,24576,24576,8192,0,32768,65536,98304
public.dependency_proxy_group_settings,public,dependency_proxy_group_settings,57344,24576,8192,0,81920,90112,172032
public.chat_names,public,chat_names,32768,24576,0,0,81920,65536,147456
public.scim_oauth_access_tokens,public,scim_oauth_access_tokens,32768,24576,8192,0,57344,73728,131072
public.cluster_providers_aws,public,cluster_providers_aws,122880,24576,8192,0,81920,163840,245760
public.x509_issuers,public,x509_issuers,8192,24576,8192,0,32768,49152,81920
public.jira_connect_installations,public,jira_connect_installations,458752,24576,8192,0,196608,499712,696320
public.ar_internal_metadata,public,ar_internal_metadata,8192,24576,8192,0,16384,49152,65536
public.namespace_root_storage_statistics,public,namespace_root_storage_statistics,107380736,49152,8192,0,49561600,107438080,156999680
public.jira_connect_subscriptions,public,jira_connect_subscriptions,16384,24576,8192,0,65536,49152,114688
public.issue_tracker_data,public,issue_tracker_data,4734976,24576,8192,0,1032192,4825088,5857280
public.user_canonical_emails,public,user_canonical_emails,2809856,24576,8192,0,4620288,2850816,7471104
public.project_features,public,project_features,1140883456,303104,40960,0,1149403136,1141227520,2290630656
public.namespace_aggregation_schedules,public,namespace_aggregation_schedules,1589248,24576,8192,0,868352,1622016,2490368
public.project_auto_devops,public,project_auto_devops,32284672,24576,8192,0,23691264,32325632,56016896
public.draft_notes,public,draft_notes,16711680,24576,8192,0,2514944,16834560,19349504
public.untracked_files_for_uploads,public,untracked_files_for_uploads,2039808,24576,8192,0,2342912,2080768,4423680
public.user_callouts,public,user_callouts,80396288,40960,8192,0,103636992,80445440,184082432
public.internal_ids,public,internal_ids,203988992,73728,8192,0,314335232,204070912,518406144
public.zoom_meetings,public,zoom_meetings,8192,24576,8192,0,81920,40960,122880
public.cluster_providers_gcp,public,cluster_providers_gcp,3383296,24576,8192,0,958464,3424256,4382720
public.software_licenses,public,software_licenses,253952,24576,8192,0,139264,294912,434176
public.ci_runner_namespaces,public,ci_runner_namespaces,7446528,24576,8192,0,11059200,7479296,18538496
public.project_metrics_settings,public,project_metrics_settings,40960,24576,8192,0,16384,81920,98304
public.elasticsearch_indexed_namespaces,public,elasticsearch_indexed_namespaces,16384,24576,8192,0,32768,49152,81920
public.vulnerability_occurrences,public,vulnerability_occurrences,3137724416,794624,98304,0,577331200,3153829888,3731161088
public.ci_build_trace_chunks,public,ci_build_trace_chunks,4546560,24576,8192,0,98304,4587520,4685824
public.import_failures,public,import_failures,6807552,24576,8192,0,1540096,6848512,8388608
public.award_emoji,public,award_emoji,306028544,98304,16384,0,333324288,306151424,639475712
public.elasticsearch_indexed_projects,public,elasticsearch_indexed_projects,0,0,0,0,8192,0,8192
public.ci_build_needs,public,ci_build_needs,2832343040,712704,90112,0,3128336384,2833154048,5961490432
public.gitlab_subscriptions,public,gitlab_subscriptions,355344384,106496,16384,0,282107904,355467264,637575168
public.merge_requests,public,merge_requests,22034374656,5439488,679936,0,27619188736,24206098432,51825287168
public.ci_daily_report_results,public,ci_daily_report_results,21061632,24576,8192,0,23363584,21102592,44466176
public.jira_tracker_data,public,jira_tracker_data,18563072,24576,8192,0,2244608,18604032,20848640
public.approvers,public,approvers,273743872,90112,16384,0,302931968,273850368,576782336
public.ip_restrictions,public,ip_restrictions,8192,24576,8192,0,32768,49152,81920
public.geo_container_repository_updated_events,public,geo_container_repository_updated_events,0,0,0,0,16384,0,16384
public.project_pages_metadata,public,project_pages_metadata,592855040,163840,24576,0,297934848,593043456,890978304
public.packages_conan_file_metadata,public,packages_conan_file_metadata,81920,24576,8192,0,65536,122880,188416
public.self_managed_prometheus_alert_events,public,self_managed_prometheus_alert_events,8192,24576,8192,0,49152,49152,98304
public.resource_weight_events,public,resource_weight_events,0,0,0,0,24576,0,24576
public.releases,public,releases,579796992,163840,24576,0,76398592,728367104,804765696
public.merge_trains,public,merge_trains,2064384,24576,8192,0,2580480,2105344,4685824
public.project_aliases,public,project_aliases,8192,24576,8192,0,49152,49152,98304
public.push_event_payloads,public,push_event_payloads,59864072192,14729216,1835008,0,10303258624,59880644608,70183903232
public.merge_request_assignees,public,merge_request_assignees,626352128,172032,24576,0,1248755712,626548736,1875304448
public.programming_languages,public,programming_languages,24576,24576,8192,0,49152,65536,114688
public.issues_self_managed_prometheus_alert_events,public,issues_self_managed_prometheus_alert_events,8192,24576,8192,0,32768,40960,73728
public.geo_node_statuses,public,geo_node_statuses,0,16384,0,0,16384,24576,40960
public.design_management_versions,public,design_management_versions,376832,24576,8192,0,466944,417792,884736
public.ci_job_variables,public,ci_job_variables,4251648,24576,8192,0,1712128,4833280,6545408
public.lists,public,lists,487882752,139264,16384,0,506576896,488038400,994615296
public.issue_user_mentions,public,issue_user_mentions,141844480,57344,8192,0,115310592,141918208,257228800
public.merge_request_user_mentions,public,merge_request_user_mentions,108380160,49152,8192,0,94404608,108445696,202850304
public.remote_mirrors,public,remote_mirrors,41345024,32768,8192,0,3686400,84885504,88571904
public.x509_certificates,public,x509_certificates,8192,24576,8192,0,49152,49152,98304
public.packages_packages,public,packages_packages,14581760,24576,8192,0,33693696,14622720,48316416
public.design_management_designs_versions,public,design_management_designs_versions,434176,24576,8192,0,966656,466944,1433600
public.clusters_applications_jupyter,public,clusters_applications_jupyter,65536,24576,8192,0,98304,106496,204800
public.repository_languages,public,repository_languages,836435968,229376,32768,0,405282816,836698112,1241980928
public.note_diff_files,public,note_diff_files,9020440576,2236416,278528,0,433176576,11953029120,12386205696
public.list_user_preferences,public,list_user_preferences,22863872,24576,8192,0,28532736,22896640,51429376
public.aws_roles,public,aws_roles,114688,24576,8192,0,155648,155648,311296
public.x509_commit_signatures,public,x509_commit_signatures,114688,24576,8192,0,212992,155648,368640
public.users_security_dashboard_projects,public,users_security_dashboard_projects,73728,24576,8192,0,81920,106496,188416
public.protected_environments,public,protected_environments,892928,24576,8192,0,1081344,933888,2015232
public.vulnerability_feedback,public,vulnerability_feedback,1220608,24576,8192,0,1875968,1261568,3137536
public.saml_providers,public,saml_providers,188416,24576,8192,0,65536,229376,294912
public.clusters_applications_knative,public,clusters_applications_knative,90112,24576,8192,0,81920,131072,212992
public.analytics_cycle_analytics_project_stages,public,analytics_cycle_analytics_project_stages,0,0,0,0,49152,0,49152
public.ci_refs,public,ci_refs,47996928,32768,8192,0,53215232,48046080,101261312
public.allowed_email_domains,public,allowed_email_domains,24576,24576,8192,0,32768,57344,90112
public.geo_repository_created_events,public,geo_repository_created_events,0,0,0,0,16384,8192,24576
public.personal_access_tokens,public,personal_access_tokens,654262272,180224,24576,0,375160832,654671872,1029832704
public.clusters_applications_elastic_stacks,public,clusters_applications_elastic_stacks,40960,24576,8192,0,32768,81920,114688
public.gitlab_subscription_histories,public,gitlab_subscription_histories,7430144,24576,8192,0,3211264,7462912,10674176
public.ci_resource_groups,public,ci_resource_groups,2465792,24576,8192,0,2170880,2498560,4669440
public.design_management_designs,public,design_management_designs,409600,24576,8192,0,589824,475136,1064960
public.ci_subscriptions_projects,public,ci_subscriptions_projects,8192,0,0,0,49152,8192,57344
public.container_expiration_policies,public,container_expiration_policies,131391488,49152,8192,0,91725824,131448832,223174656
public.protected_branch_unprotect_access_levels,public,protected_branch_unprotect_access_levels,1736704,24576,8192,0,3375104,1769472,5144576
public.user_statuses,public,user_statuses,8519680,24576,8192,0,4784128,8560640,13344768
public.project_deploy_tokens,public,project_deploy_tokens,7168000,24576,8192,0,9240576,7200768,16441344
public.notification_settings,public,notification_settings,1440776192,376832,49152,0,2021736448,1441210368,3462946816
public.design_user_mentions,public,design_user_mentions,131072,24576,8192,0,172032,172032,344064
public.import_export_uploads,public,import_export_uploads,15056896,24576,8192,0,12500992,15097856,27598848
public.analytics_cycle_analytics_group_stages,public,analytics_cycle_analytics_group_stages,16384,24576,8192,0,114688,49152,163840
public.epic_user_mentions,public,epic_user_mentions,475136,24576,8192,0,499712,516096,1015808
public.commit_user_mentions,public,commit_user_mentions,15351808,24576,8192,0,15859712,15392768,31252480
public.broadcast_messages,public,broadcast_messages,0,16384,0,0,16384,24576,40960
public.packages_build_infos,public,packages_build_infos,2514944,24576,8192,0,3710976,2547712,6258688
public.term_agreements,public,term_agreements,264863744,81920,8192,0,384368640,264953856,649322496
public.group_custom_attributes,public,group_custom_attributes,0,0,0,0,24576,8192,32768
public.application_setting_terms,public,application_setting_terms,24576,24576,8192,0,16384,65536,81920
public.ci_builds_runner_session,public,ci_builds_runner_session,335872,24576,8192,0,32768,376832,409600
public.feature_gates,public,feature_gates,57344,24576,8192,0,81920,98304,180224
public.project_mirror_data,public,project_mirror_data,2222743552,565248,73728,0,411344896,2297970688,2709315584
public.ci_sources_pipelines,public,ci_sources_pipelines,79962112,40960,8192,0,204767232,80011264,284778496
public.gpg_keys,public,gpg_keys,14073856,24576,8192,0,4644864,271286272,275931136
public.merge_request_context_commit_diff_files,public,merge_request_context_commit_diff_files,0,0,0,0,16384,8192,24576
public.protected_environment_deploy_access_levels,public,protected_environment_deploy_access_levels,991232,24576,8192,0,1376256,1024000,2400256
public.project_feature_usages,public,project_feature_usages,18079744,24576,8192,0,2473984,18112512,20586496
public.ci_builds_metadata,public,ci_builds_metadata,22985441280,5668864,704512,0,27343536128,22991822848,50335358976
public.resource_label_events,public,resource_label_events,19728498688,4866048,606208,0,5513240576,19734167552,25247408128
public.project_repository_states,public,project_repository_states,877142016,237568,32768,0,834863104,877420544,1712283648
public.suggestions,public,suggestions,71024640,40960,8192,0,11878400,71368704,83247104
public.web_hook_logs,public,web_hook_logs,121727983616,29933568,3727360,0,7110410240,173744193536,180854603776
public.clusters_applications_prometheus,public,clusters_applications_prometheus,974848,24576,8192,0,442368,1040384,1482752
public.clusters_applications_cert_managers,public,clusters_applications_cert_managers,483328,24576,8192,0,245760,524288,770048
public.packages_maven_metadata,public,packages_maven_metadata,17391616,24576,8192,0,11100160,17432576,28532736
public.vulnerability_scanners,public,vulnerability_scanners,1089536,24576,8192,0,811008,1130496,1941504
public.vulnerability_occurrence_identifiers,public,vulnerability_occurrence_identifiers,193986560,65536,8192,0,215588864,194060288,409649152
public.routes,public,routes,2291433472,581632,73728,0,3593355264,2292097024,5885452288
public.ci_job_artifacts,public,ci_job_artifacts,68016250880,16736256,2088960,0,51118710784,68035084288,119153795072
public.gpg_signatures,public,gpg_signatures,1900363776,483328,65536,0,2342445056,1900920832,4243365888
public.board_labels,public,board_labels,540672,24576,8192,0,860160,573440,1433600
public.fork_networks,public,fork_networks,8880128,24576,8192,0,10436608,8921088,19357696
public.approvals,public,approvals,302235648,98304,16384,0,334258176,302350336,636608512
public.user_synced_attributes_metadata,public,user_synced_attributes_metadata,0,0,0,0,16384,8192,24576
public.ci_group_variables,public,ci_group_variables,25108480,24576,8192,0,6840320,86269952,93110272
public.geo_repositories_changed_events,public,geo_repositories_changed_events,0,0,0,0,16384,0,16384
public.geo_repository_renamed_events,public,geo_repository_renamed_events,0,0,0,0,16384,8192,24576
public.geo_repository_updated_events,public,geo_repository_updated_events,0,0,0,0,24576,8192,32768
public.timelogs,public,timelogs,148398080,57344,8192,0,175128576,148471808,323600384
public.project_ci_cd_settings,public,project_ci_cd_settings,622944256,172032,24576,0,587038720,623140864,1210179584
public.user_custom_attributes,public,user_custom_attributes,8192,24576,8192,0,49152,49152,98304
public.prometheus_metrics,public,prometheus_metrics,172032,24576,8192,0,204800,212992,417792
public.vulnerability_identifiers,public,vulnerability_identifiers,106766336,49152,8192,0,42336256,106831872,149168128
public.labels,public,labels,1144414208,303104,40960,0,1718124544,1145217024,2863341568
public.ci_build_trace_sections,public,ci_build_trace_sections,184905637888,45473792,5627904,0,162694963200,184956739584,347651702784
public.project_authorizations,public,project_authorizations,4072259584,1024000,131072,0,4881063936,4073414656,8954478592
public.user_interacted_projects,public,user_interacted_projects,764534784,204800,24576,0,916946944,764764160,1681711104
public.slack_integrations,public,slack_integrations,3809280,24576,8192,0,3432448,3850240,7282688
public.epic_metrics,public,epic_metrics,24576,24576,8192,0,32768,57344,90112
public.epic_issues,public,epic_issues,3432448,24576,8192,0,5136384,3465216,8601600
public.features,public,features,24576,24576,8192,0,49152,65536,114688
public.appearances,public,appearances,1818624,24576,8192,0,16384,1859584,1875968
public.ci_pipeline_variables,public,ci_pipeline_variables,9530523648,2359296,294912,0,4167475200,11430313984,15597789184
public.conversational_development_index_metrics,public,conversational_development_index_metrics,16384,24576,8192,0,16384,49152,65536
public.protected_tags,public,protected_tags,1785856,24576,8192,0,2015232,1826816,3842048
public.cluster_platforms_kubernetes,public,cluster_platforms_kubernetes,44572672,32768,8192,0,1507328,86941696,88449024
public.ci_stages,public,ci_stages,20657070080,5095424,630784,0,28378349568,20662804480,49041154048
public.plans,public,plans,8192,24576,8192,0,32768,49152,81920
public.ci_pipeline_schedule_variables,public,ci_pipeline_schedule_variables,4849664,24576,8192,0,1466368,5767168,7233536
public.clusters_applications_helm,public,clusters_applications_helm,37224448,32768,8192,0,983040,138051584,139034624
public.vulnerability_occurrence_pipelines,public,vulnerability_occurrence_pipelines,3689742336,925696,114688,0,4111654912,3690782720,7802437632
public.redirect_routes,public,redirect_routes,130777088,49152,8192,0,210771968,130842624,341614592
public.approver_groups,public,approver_groups,18284544,24576,8192,0,20054016,18325504,38379520
public.namespace_statistics,public,namespace_statistics,37117952,32768,8192,0,24887296,37158912,62046208
public.geo_lfs_object_deleted_events,public,geo_lfs_object_deleted_events,0,0,0,0,16384,8192,24576
public.shards,public,shards,8192,24576,8192,0,32768,49152,81920
public.geo_repository_deleted_events,public,geo_repository_deleted_events,0,0,0,0,16384,8192,24576
public.gpg_key_subkeys,public,gpg_key_subkeys,3375104,24576,8192,0,5799936,3416064,9216000
public.project_statistics,public,project_statistics,1628905472,417792,57344,0,880558080,1629380608,2509938688
public.uploads,public,uploads,3152822272,794624,98304,0,3409297408,3153723392,6563020800
public.clusters_applications_runners,public,clusters_applications_runners,942080,24576,8192,0,786432,983040,1769472
public.ci_pipeline_chat_data,public,ci_pipeline_chat_data,24576,24576,0,0,49152,57344,106496
public.audit_events,public,audit_events,71132946432,17498112,2179072,0,23598252032,71159619584,94757871616
public.issue_links,public,issue_links,46784512,32768,8192,0,42860544,46825472,89686016
public.board_assignees,public,board_assignees,106496,24576,8192,0,221184,139264,360448
public.ci_runner_projects,public,ci_runner_projects,27566080,24576,8192,0,30400512,27598848,57999360
public.fork_network_members,public,fork_network_members,29302784,24576,8192,0,58785792,29335552,88121344
public.issue_assignees,public,issue_assignees,484368384,139264,16384,0,591249408,484524032,1075773440
public.ci_trigger_requests,public,ci_trigger_requests,236404736,81920,8192,0,249864192,236527616,486391808
public.ci_triggers,public,ci_triggers,7602176,24576,8192,0,3317760,7733248,11051008
public.deploy_keys_projects,public,deploy_keys_projects,37773312,32768,8192,0,36814848,37814272,74629120
public.geo_hashed_storage_attachments_events,public,geo_hashed_storage_attachments_events,0,0,0,0,16384,8192,24576
public.emails,public,emails,25370624,24576,8192,0,26296320,25411584,51707904
public.requirements,public,requirements,0,0,0,0,73728,8192,81920
public.historical_data,public,historical_data,73728,24576,8192,0,40960,106496,147456
public.ci_build_trace_section_names,public,ci_build_trace_section_names,718962688,196608,24576,0,790421504,719192064,1509613568
public.operations_feature_flags_clients,public,operations_feature_flags_clients,1925120,24576,8192,0,1515520,1966080,3481600
public.protected_tag_create_access_levels,public,protected_tag_create_access_levels,1875968,24576,8192,0,2621440,1908736,4530176
public.project_custom_attributes,public,project_custom_attributes,8192,24576,8192,0,49152,49152,98304
public.ci_pipeline_schedules,public,ci_pipeline_schedules,13656064,24576,8192,0,3055616,13746176,16801792
public.abuse_reports,public,abuse_reports,16384,24576,8192,0,32768,81920,114688
public.chat_teams,public,chat_teams,0,0,0,0,16384,8192,24576
public.geo_nodes,public,geo_nodes,0,0,0,0,32768,8192,40960
public.project_tracing_settings,public,project_tracing_settings,16384,24576,8192,0,32768,57344,90112
public.geo_job_artifact_deleted_events,public,geo_job_artifact_deleted_events,0,0,0,0,16384,8192,24576
public.index_statuses,public,index_statuses,4489216,24576,8192,0,1327104,4530176,5857280
public.badges,public,badges,8462336,24576,8192,0,2752512,8945664,11698176
public.merge_request_diff_commits,public,merge_request_diff_commits,689809596416,169590784,21078016,0,166251454464,706687451136,872938905600
public.geo_node_namespace_links,public,geo_node_namespace_links,0,0,0,0,32768,0,32768
public.cluster_projects,public,cluster_projects,1499136,24576,8192,0,1695744,1531904,3227648
public.issue_metrics,public,issue_metrics,1338843136,352256,49152,0,1822294016,1339244544,3161538560
public.identities,public,identities,177397760,65536,8192,0,199327744,177479680,376807424
public.label_links,public,label_links,2305073152,589824,73728,0,2559172608,2305736704,4864909312
public.prometheus_alerts,public,prometheus_alerts,8192,24576,8192,0,65536,40960,106496
public.geo_upload_deleted_events,public,geo_upload_deleted_events,0,0,0,0,16384,8192,24576
public.clusters_kubernetes_namespaces,public,clusters_kubernetes_namespaces,69574656,40960,8192,0,9723904,72941568,82665472
public.lfs_objects_projects,public,lfs_objects_projects,2589728768,655360,81920,0,2878636032,2590466048,5469102080
public.lfs_objects,public,lfs_objects,4971216896,1245184,155648,0,3457081344,4972625920,8429707264
public.label_priorities,public,label_priorities,6397952,24576,8192,0,9240576,6430720,15671296
public.ldap_group_links,public,ldap_group_links,8192,24576,8192,0,16384,49152,65536
public.merge_request_diffs,public,merge_request_diffs,17060061184,4210688,524288,0,4942561280,19314237440,24256798720
public.keys,public,keys,2199306240,557056,73728,0,623403008,2201796608,2825199616
public.pool_repositories,public,pool_repositories,3506176,24576,8192,0,4235264,3547136,7782400
public.system_note_metadata,public,system_note_metadata,12069740544,2990080,368640,0,8270757888,12073107456,20343865344
public.board_project_recent_visits,public,board_project_recent_visits,9863168,24576,8192,0,16588800,9895936,26484736
public.licenses,public,licenses,8192,24576,8192,0,16384,49152,65536
public.members,public,members,1886978048,483328,65536,0,3174809600,1887535104,5062344704
public.reviews,public,reviews,17883136,24576,8192,0,26640384,17915904,44556288
public.users_ops_dashboard_projects,public,users_ops_dashboard_projects,917504,24576,8192,0,1056768,950272,2007040
public.project_repositories,public,project_repositories,1648181248,425984,57344,0,2257510400,1648672768,3906183168
public.release_links,public,release_links,4726784,24576,8192,0,5185536,4767744,9953280
public.merge_requests_closing_issues,public,merge_requests_closing_issues,154755072,57344,8192,0,166379520,154820608,321200128
public.cluster_groups,public,cluster_groups,188416,24576,8192,0,344064,221184,565248
public.geo_cache_invalidation_events,public,geo_cache_invalidation_events,0,0,0,0,8192,8192,16384
public.geo_reset_checksum_events,public,geo_reset_checksum_events,0,0,0,0,16384,0,16384
public.boards,public,boards,92545024,40960,8192,0,120619008,93028352,213647360
public.merge_request_diff_files,public,merge_request_diff_files,980998176768,241172480,30031872,0,28901851136,1878396362752,1907298213888
public.oauth_access_tokens,public,oauth_access_tokens,863485952,229376,32768,0,1073209344,863756288,1936965632
public.oauth_applications,public,oauth_applications,20119552,24576,8192,0,5881856,20250624,26132480
public.operations_feature_flags,public,operations_feature_flags,147456,24576,8192,0,131072,188416,319488
public.board_group_recent_visits,public,board_group_recent_visits,2736128,24576,8192,0,4644864,2768896,7413760
public.project_import_data,public,project_import_data,106815488,49152,8192,0,25919488,221265920,247185408
public.project_group_links,public,project_group_links,11984896,24576,8192,0,11501568,12017664,23519232
public.path_locks,public,path_locks,1007616,24576,8192,0,1384448,1048576,2433024
public.protected_branch_merge_access_levels,public,protected_branch_merge_access_levels,665894912,180224,24576,0,977108992,666099712,1643208704
public.oauth_access_grants,public,oauth_access_grants,666640384,180224,24576,0,408387584,666853376,1075240960
public.packages_dependencies,public,packages_dependencies,679936,24576,8192,0,745472,720896,1466368
public.packages_dependency_links,public,packages_dependency_links,20398080,24576,8192,0,28893184,20430848,49324032
public.protected_branch_push_access_levels,public,protected_branch_push_access_levels,682975232,188416,24576,0,977174528,683188224,1660362752
public.push_rules,public,push_rules,440107008,131072,16384,0,242843648,440262656,683106304
public.project_alerting_settings,public,project_alerting_settings,8192,24576,8192,0,16384,49152,65536
public.approval_merge_request_rules_approved_approvers,public,approval_merge_request_rules_approved_approvers,154402816,57344,8192,0,212099072,154468352,366567424
public.deployment_merge_requests,public,deployment_merge_requests,695132160,188416,24576,0,1416921088,695345152,2112266240
public.sent_notifications,public,sent_notifications,47663562752,11730944,1458176,0,30346158080,47676760064,78022918144
public.spam_logs,public,spam_logs,208510976,73728,8192,0,7864320,471326720,479191040
public.operations_feature_flag_scopes,public,operations_feature_flag_scopes,221184,24576,8192,0,131072,262144,393216
public.approval_merge_request_rules_groups,public,approval_merge_request_rules_groups,40198144,32768,8192,0,56655872,40239104,96894976
public.tags,public,tags,11067392,24576,8192,0,21905408,11108352,33013760
public.subscriptions,public,subscriptions,35127296,32768,8192,0,38936576,35168256,74104832
public.taggings,public,taggings,14145110016,3497984,434176,0,38276808704,14149050368,52425859072
public.approval_project_rules_users,public,approval_project_rules_users,5529600,24576,8192,0,8003584,5562368,13565952
public.approval_project_rules_groups,public,approval_project_rules_groups,909312,24576,8192,0,1359872,942080,2301952
public.trending_projects,public,trending_projects,8192,24576,8192,0,32768,40960,73728
public.todos,public,todos,4584112128,1146880,147456,0,11338915840,4585414656,15924330496
public.u2f_registrations,public,u2f_registrations,17924096,24576,8192,0,3350528,17965056,21315584
public.approval_merge_request_rule_sources,public,approval_merge_request_rule_sources,125476864,49152,8192,0,151044096,125534208,276578304
public.user_agent_details,public,user_agent_details,3455762432,868352,106496,0,1024000000,3456745472,4480745472
public.project_error_tracking_settings,public,project_error_tracking_settings,901120,24576,8192,0,106496,942080,1048576
public.users_star_projects,public,users_star_projects,28884992,24576,8192,0,31875072,28917760,60792832
public.web_hooks,public,web_hooks,135471104,57344,8192,0,40198144,135708672,175906816
public.approval_merge_request_rules,public,approval_merge_request_rules,498614272,139264,16384,0,336044032,498827264,834871296
public.geo_events,public,geo_events,0,0,0,0,8192,8192,16384
public.software_license_policies,public,software_license_policies,425984,24576,8192,0,294912,458752,753664
public.epics,public,epics,25346048,24576,8192,0,6684672,37330944,44015616
public.geo_event_log,public,geo_event_log,0,0,0,0,122880,0,122880
public.protected_branches,public,protected_branches,755105792,204800,24576,0,486588416,755343360,1241931776
public.user_preferences,public,user_preferences,310673408,98304,16384,0,144883712,310796288,455680000
public.service_desk_settings,public,service_desk_settings,49152,24576,8192,0,49152,90112,139264
public.clusters_applications_crossplane,public,clusters_applications_crossplane,24576,24576,8192,0,32768,65536,98304
public.vulnerability_issue_links,public,vulnerability_issue_links,0,0,0,0,32768,0,32768
public.approval_project_rules,public,approval_project_rules,6717440,24576,8192,0,6864896,6758400,13623296
public.sentry_issues,public,sentry_issues,32768,24576,8192,0,98304,65536,163840
public.snippet_user_mentions,public,snippet_user_mentions,24576,24576,8192,0,65536,65536,131072
public.pages_domains,public,pages_domains,74506240,40960,8192,0,7593984,278904832,286498816
public.description_versions,public,description_versions,802447360,221184,24576,0,57409536,1613651968,1671061504
public.merge_request_context_commits,public,merge_request_context_commits,0,0,0,0,24576,8192,32768
public.packages_tags,public,packages_tags,90112,24576,8192,0,155648,122880,278528
public.approval_project_rules_protected_branches,public,approval_project_rules_protected_branches,57344,24576,8192,0,106496,90112,196608
public.snippets,public,snippets,351174656,106496,16384,0,600555520,1851801600,2452357120
public.deploy_tokens,public,deploy_tokens,39919616,32768,8192,0,27582464,39968768,67551232
public.group_deploy_tokens,public,group_deploy_tokens,90112,24576,8192,0,163840,122880,286720
public.snippet_repositories,public,snippet_repositories,8192,24576,8192,0,49152,40960,90112
public.plan_limits,public,plan_limits,8192,24576,8192,0,32768,40960,73728
public.jira_imports,public,jira_imports,0,0,0,0,32768,8192,40960
public.application_settings,public,application_settings,98304,24576,8192,0,98304,212992,311296
public.operations_strategies,public,operations_strategies,8192,24576,8192,0,32768,49152,81920
public.status_page_settings,public,status_page_settings,8192,0,0,0,32768,16384,49152
public.operations_scopes,public,operations_scopes,8192,24576,8192,0,32768,40960,73728
public.user_details,public,user_details,26853376,24576,8192,0,8421376,26886144,35307520
public.open_project_tracker_data,public,open_project_tracker_data,0,0,0,0,16384,8192,24576
public.vulnerabilities,public,vulnerabilities,373440512,114688,16384,0,348889088,373579776,722468864
public.security_scans,public,security_scans,91463680,40960,8192,0,99377152,91512832,190889984
public.milestones,public,milestones,212017152,73728,8192,0,257605632,234217472,491823104
public.environments,public,environments,206069760,73728,8192,0,275759104,206159872,481918976
public.resource_milestone_events,public,resource_milestone_events,0,0,0,0,40960,8192,49152
public.serverless_domain_cluster,public,serverless_domain_cluster,0,0,0,0,32768,8192,40960
public.scim_identities,public,scim_identities,0,0,0,0,32768,0,32768
public.deployments,public,deployments,9950011392,2465792,303104,0,24690368512,9952788480,34643156992
public.deployment_clusters,public,deployment_clusters,86122496,40960,8192,0,117391360,86171648,203563008
public.users,public,users,2637742080,671744,81920,0,4617273344,2641510400,7258783744
public.ci_sources_projects,public,ci_sources_projects,8192,0,0,0,49152,8192,57344
public.user_highest_roles,public,user_highest_roles,605560832,172032,24576,0,271712256,605757440,877469696
public.notes,public,notes,196253278208,48259072,6004736,0,132028104704,208585515008,340613619712
public.ci_pipelines,public,ci_pipelines,27981242368,6897664,860160,0,52096155648,28024209408,80120365056
public.project_export_jobs,public,project_export_jobs,19677184,24576,8192,0,38797312,19709952,58507264
public.vulnerability_user_mentions,public,vulnerability_user_mentions,0,0,0,0,32768,8192,40960
public.wiki_page_meta,public,wiki_page_meta,0,0,0,0,16384,0,16384
public.wiki_page_slugs,public,wiki_page_slugs,0,0,0,0,32768,8192,40960
public.ci_runners,public,ci_runners,389980160,114688,16384,0,120569856,390119424,510689280
public.metrics_dashboard_annotations,public,metrics_dashboard_annotations,0,0,0,0,24576,8192,32768
public.namespaces,public,namespaces,1044840448,278528,32768,0,3417407488,1045159936,4462567424
public.clusters_applications_ingress,public,clusters_applications_ingress,1925120,24576,8192,0,475136,1966080,2441216
public.vulnerability_exports,public,vulnerability_exports,0,0,0,0,24576,8192,32768
public.issues,public,issues,18216452096,4497408,565248,0,20292165632,26042466304,46334631936
public.projects,public,projects,3812114432,958464,122880,0,13229465600,4104683520,17334149120
public.packages_package_files,public,packages_package_files,231063552,73728,8192,0,87244800,231153664,318398464
public.merge_request_metrics,public,merge_request_metrics,3517562880,884736,114688,0,7242342400,3518562304,10760904704
public.terraform_states,public,terraform_states,0,0,0,0,16384,0,16384
public.container_repositories,public,container_repositories,52846592,32768,8192,0,61685760,52895744,114581504
public.clusters,public,clusters,5398528,24576,8192,0,2760704,5496832,8257536
public.clusters_applications_fluentd,public,clusters_applications_fluentd,0,0,0,0,16384,8192,24576
