t,schemaname,tablename,relation_size_main,relation_size_fsm,relation_size_vm,relation_size_init,indexes_size,table_size,total_relation_size
public.abuse_reports,public,abuse_reports,16384,24576,0,0,32768,49152,81920
public.appearances,public,appearances,8192,0,0,0,16384,16384,32768
public.application_settings,public,application_settings,8192,0,0,0,98304,81920,180224
public.approval_merge_request_rules,public,approval_merge_request_rules,500744192,147456,0,0,529678336,500916224,1030594560
pg_catalog.pg_statistic,pg_catalog,pg_statistic,1851392,24576,8192,0,106496,4521984,4628480
public.analytics_cycle_analytics_project_stages,public,analytics_cycle_analytics_project_stages,0,0,0,0,49152,0,49152
public.approval_merge_request_rules_groups,public,approval_merge_request_rules_groups,38617088,32768,0,0,86032384,38649856,124682240
public.analytics_cycle_analytics_group_stages,public,analytics_cycle_analytics_group_stages,16384,24576,0,0,114688,40960,155648
public.approval_merge_request_rule_sources,public,approval_merge_request_rule_sources,116916224,49152,0,0,235003904,116965376,351969280
public.approval_merge_request_rules_approved_approvers,public,approval_merge_request_rules_approved_approvers,144687104,57344,0,0,295092224,144744448,439836672
public.analytics_language_trend_repository_languages,public,analytics_language_trend_repository_languages,0,0,0,0,16384,0,16384
public.allowed_email_domains,public,allowed_email_domains,24576,24576,0,0,32768,49152,81920
public.alerts_service_data,public,alerts_service_data,24576,24576,0,0,32768,57344,90112
public.approval_project_rules_protected_branches,public,approval_project_rules_protected_branches,57344,24576,0,0,131072,81920,212992
pg_catalog.pg_foreign_table,pg_catalog,pg_foreign_table,0,0,0,0,8192,0,8192
public.approvals,public,approvals,298745856,90112,0,0,495484928,298835968,794320896
public.approval_project_rules_groups,public,approval_project_rules_groups,901120,24576,0,0,2007040,925696,2932736
public.approval_project_rules,public,approval_project_rules,6520832,24576,0,0,9854976,6553600,16408576
public.approval_merge_request_rules_users,public,approval_merge_request_rules_users,919535616,245760,0,0,1963761664,919781376,2883543040
public.approval_project_rules_users,public,approval_project_rules_users,5439488,24576,0,0,12206080,5464064,17670144
pg_catalog.pg_authid,pg_catalog,pg_authid,8192,24576,8192,0,32768,40960,73728
public.approvers,public,approvers,271147008,90112,0,0,495452160,271237120,766689280
public.ar_internal_metadata,public,ar_internal_metadata,8192,0,0,0,16384,16384,32768
public.audit_events,public,audit_events,71093936128,17489920,0,0,32395173888,71118389248,103513563136
public.award_emoji,public,award_emoji,298246144,90112,0,0,473333760,298344448,771678208
public.approver_groups,public,approver_groups,17883136,24576,0,0,31023104,17915904,48939008
public.badges,public,badges,8437760,24576,0,0,3792896,8732672,12525568
public.board_group_recent_visits,public,board_group_recent_visits,2572288,24576,0,0,6094848,2596864,8691712
public.board_assignees,public,board_assignees,106496,24576,0,0,278528,131072,409600
public.broadcast_messages,public,broadcast_messages,0,0,0,0,16384,8192,24576
public.boards,public,boards,91963392,40960,0,0,162594816,92422144,255016960
public.aws_roles,public,aws_roles,114688,24576,0,0,172032,147456,319488
public.chat_names,public,chat_names,32768,24576,0,0,90112,65536,155648
public.board_labels,public,board_labels,524288,24576,0,0,1228800,548864,1777664
public.chat_teams,public,chat_teams,0,0,0,0,16384,8192,24576
public.board_project_recent_visits,public,board_project_recent_visits,9265152,24576,0,0,21577728,9289728,30867456
pg_catalog.pg_user_mapping,pg_catalog,pg_user_mapping,0,0,0,0,16384,0,16384
pg_catalog.pg_subscription,pg_catalog,pg_subscription,0,0,0,0,16384,0,16384
pg_catalog.pg_largeobject,pg_catalog,pg_largeobject,0,0,0,0,8192,0,8192
pg_catalog.pg_type,pg_catalog,pg_type,294912,24576,8192,0,188416,327680,516096
pg_catalog.pg_attribute,pg_catalog,pg_attribute,2285568,24576,8192,0,876544,2318336,3194880
pg_catalog.pg_proc,pg_catalog,pg_proc,679936,24576,8192,0,393216,720896,1114112
pg_catalog.pg_class,pg_catalog,pg_class,524288,24576,8192,0,466944,557056,1024000
pg_catalog.pg_attrdef,pg_catalog,pg_attrdef,294912,24576,0,0,90112,327680,417792
pg_catalog.pg_constraint,pg_catalog,pg_constraint,196608,24576,8192,0,278528,237568,516096
pg_catalog.pg_inherits,pg_catalog,pg_inherits,0,0,0,0,16384,0,16384
pg_catalog.pg_index,pg_catalog,pg_index,360448,24576,8192,0,122880,393216,516096
pg_catalog.pg_operator,pg_catalog,pg_operator,122880,24576,8192,0,90112,155648,245760
pg_catalog.pg_opfamily,pg_catalog,pg_opfamily,24576,24576,8192,0,32768,57344,90112
pg_catalog.pg_opclass,pg_catalog,pg_opclass,24576,24576,8192,0,32768,57344,90112
pg_catalog.pg_am,pg_catalog,pg_am,8192,24576,8192,0,32768,40960,73728
pg_catalog.pg_amop,pg_catalog,pg_amop,65536,24576,8192,0,147456,98304,245760
pg_catalog.pg_amproc,pg_catalog,pg_amproc,40960,24576,8192,0,73728,73728,147456
pg_catalog.pg_language,pg_catalog,pg_language,8192,24576,8192,0,32768,40960,73728
pg_catalog.pg_largeobject_metadata,pg_catalog,pg_largeobject_metadata,0,0,0,0,8192,0,8192
pg_catalog.pg_aggregate,pg_catalog,pg_aggregate,16384,24576,8192,0,16384,49152,65536
pg_catalog.pg_statistic_ext,pg_catalog,pg_statistic_ext,0,0,0,0,24576,8192,32768
pg_catalog.pg_rewrite,pg_catalog,pg_rewrite,106496,24576,8192,0,32768,606208,638976
pg_catalog.pg_trigger,pg_catalog,pg_trigger,999424,24576,8192,0,843776,1056768,1900544
pg_catalog.pg_event_trigger,pg_catalog,pg_event_trigger,0,0,0,0,16384,0,16384
pg_catalog.pg_description,pg_catalog,pg_description,335872,24576,8192,0,196608,376832,573440
pg_catalog.pg_cast,pg_catalog,pg_cast,16384,24576,8192,0,32768,49152,81920
pg_catalog.pg_enum,pg_catalog,pg_enum,0,0,0,0,24576,0,24576
pg_catalog.pg_namespace,pg_catalog,pg_namespace,8192,24576,8192,0,32768,40960,73728
pg_catalog.pg_conversion,pg_catalog,pg_conversion,24576,24576,8192,0,49152,57344,106496
pg_catalog.pg_depend,pg_catalog,pg_depend,1105920,24576,8192,0,1859584,1138688,2998272
pg_catalog.pg_database,pg_catalog,pg_database,8192,24576,8192,0,32768,40960,73728
pg_catalog.pg_db_role_setting,pg_catalog,pg_db_role_setting,0,0,0,0,8192,8192,16384
pg_catalog.pg_tablespace,pg_catalog,pg_tablespace,8192,24576,8192,0,32768,40960,73728
public.ci_build_needs,public,ci_build_needs,2811928576,712704,0,0,5568905216,2812649472,8381554688
pg_catalog.pg_pltemplate,pg_catalog,pg_pltemplate,8192,24576,8192,0,16384,40960,57344
pg_catalog.pg_auth_members,pg_catalog,pg_auth_members,8192,24576,8192,0,32768,40960,73728
pg_catalog.pg_shdepend,pg_catalog,pg_shdepend,8192,24576,8192,0,32768,40960,73728
pg_catalog.pg_shdescription,pg_catalog,pg_shdescription,8192,24576,8192,0,16384,49152,65536
pg_catalog.pg_ts_config,pg_catalog,pg_ts_config,8192,24576,8192,0,32768,40960,73728
pg_catalog.pg_ts_config_map,pg_catalog,pg_ts_config_map,16384,24576,8192,0,32768,49152,81920
pg_catalog.pg_ts_dict,pg_catalog,pg_ts_dict,8192,24576,8192,0,32768,40960,73728
pg_catalog.pg_ts_parser,pg_catalog,pg_ts_parser,8192,24576,8192,0,32768,40960,73728
pg_catalog.pg_ts_template,pg_catalog,pg_ts_template,8192,24576,8192,0,32768,40960,73728
pg_catalog.pg_extension,pg_catalog,pg_extension,8192,24576,8192,0,32768,40960,73728
pg_catalog.pg_foreign_data_wrapper,pg_catalog,pg_foreign_data_wrapper,8192,0,0,0,32768,8192,40960
pg_catalog.pg_foreign_server,pg_catalog,pg_foreign_server,0,0,0,0,16384,0,16384
pg_catalog.pg_policy,pg_catalog,pg_policy,0,0,0,0,16384,0,16384
pg_catalog.pg_replication_origin,pg_catalog,pg_replication_origin,0,0,0,0,16384,0,16384
pg_catalog.pg_default_acl,pg_catalog,pg_default_acl,0,0,0,0,16384,0,16384
pg_catalog.pg_init_privs,pg_catalog,pg_init_privs,16384,24576,8192,0,16384,49152,65536
pg_catalog.pg_seclabel,pg_catalog,pg_seclabel,0,0,0,0,8192,8192,16384
pg_catalog.pg_shseclabel,pg_catalog,pg_shseclabel,0,0,0,0,8192,8192,16384
pg_catalog.pg_collation,pg_catalog,pg_collation,204800,24576,8192,0,81920,237568,319488
pg_catalog.pg_partitioned_table,pg_catalog,pg_partitioned_table,0,0,0,0,8192,0,8192
pg_catalog.pg_range,pg_catalog,pg_range,8192,24576,8192,0,16384,40960,57344
pg_catalog.pg_transform,pg_catalog,pg_transform,0,0,0,0,16384,0,16384
pg_catalog.pg_sequence,pg_catalog,pg_sequence,32768,24576,0,0,16384,57344,73728
pg_catalog.pg_publication,pg_catalog,pg_publication,0,0,0,0,16384,0,16384
pg_catalog.pg_publication_rel,pg_catalog,pg_publication_rel,0,0,0,0,16384,0,16384
pg_catalog.pg_subscription_rel,pg_catalog,pg_subscription_rel,0,0,0,0,8192,0,8192
information_schema.sql_features,information_schema,sql_features,57344,24576,8192,0,0,98304,98304
information_schema.sql_implementation_info,information_schema,sql_implementation_info,8192,24576,8192,0,0,49152,49152
information_schema.sql_languages,information_schema,sql_languages,8192,24576,8192,0,0,49152,49152
information_schema.sql_packages,information_schema,sql_packages,8192,24576,8192,0,0,49152,49152
information_schema.sql_parts,information_schema,sql_parts,8192,24576,8192,0,0,49152,49152
information_schema.sql_sizing,information_schema,sql_sizing,8192,24576,8192,0,0,49152,49152
information_schema.sql_sizing_profiles,information_schema,sql_sizing_profiles,0,0,0,0,0,8192,8192
public.ci_builds_runner_session,public,ci_builds_runner_session,245760,24576,0,0,32768,278528,311296
public.ci_build_trace_section_names,public,ci_build_trace_section_names,701816832,196608,0,0,1145536512,702021632,1847558144
public.ci_daily_report_results,public,ci_daily_report_results,20496384,24576,0,0,31031296,20529152,51560448
public.ci_builds_metadata,public,ci_builds_metadata,23875043328,5890048,0,0,36466098176,23880941568,60347039744
public.ci_build_trace_sections,public,ci_build_trace_sections,184849399808,45457408,0,0,211725574144,184894857216,396620431360
public.ci_job_variables,public,ci_job_variables,2826240,24576,0,0,2719744,3391488,6111232
public.ci_runner_namespaces,public,ci_runner_namespaces,7225344,24576,0,0,14770176,7249920,22020096
public.ci_resource_groups,public,ci_resource_groups,2301952,24576,0,0,3039232,2326528,5365760
public.ci_pipeline_schedule_variables,public,ci_pipeline_schedule_variables,4259840,24576,0,0,2080768,4866048,6946816
public.ci_refs,public,ci_refs,47259648,32768,0,0,69951488,47300608,117252096
public.ci_group_variables,public,ci_group_variables,24444928,24576,0,0,9199616,80510976,89710592
public.ci_job_artifacts,public,ci_job_artifacts,66733850624,16424960,0,0,68196941824,66750283776,134947225600
public.ci_pipeline_chat_data,public,ci_pipeline_chat_data,24576,24576,0,0,49152,57344,106496
public.ci_pipeline_schedules,public,ci_pipeline_schedules,3817472,24576,0,0,4022272,3866624,7888896
public.ci_resources,public,ci_resources,1245184,24576,0,0,2105344,1269760,3375104
public.ci_pipeline_variables,public,ci_pipeline_variables,9519431680,2359296,0,0,7385874432,11405361152,18791235584
public.ci_pipelines_config,public,ci_pipelines_config,1917919232,491520,0,0,1490419712,1918418944,3408838656
public.ci_sources_pipelines,public,ci_sources_pipelines,79233024,40960,0,0,301670400,79273984,380944384
public.ci_runner_projects,public,ci_runner_projects,27115520,24576,0,0,41476096,27140096,68616192
public.ci_subscriptions_projects,public,ci_subscriptions_projects,8192,0,0,0,49152,8192,57344
public.ci_sources_projects,public,ci_sources_projects,8192,0,0,0,49152,8192,57344
public.ci_triggers,public,ci_triggers,5414912,24576,0,0,4767744,5513216,10280960
public.cluster_groups,public,cluster_groups,188416,24576,0,0,491520,212992,704512
public.ci_stages,public,ci_stages,19699892224,4857856,0,0,37777498112,19704758272,57482256384
public.ci_variables,public,ci_variables,261668864,81920,0,0,118693888,865394688,984088576
public.cluster_providers_aws,public,cluster_providers_aws,114688,24576,0,0,81920,147456,229376
public.cluster_projects,public,cluster_projects,1466368,24576,0,0,2506752,1490944,3997696
public.cluster_platforms_kubernetes,public,cluster_platforms_kubernetes,44466176,32768,0,0,2277376,86261760,88539136
public.clusters_applications_elastic_stacks,public,clusters_applications_elastic_stacks,40960,24576,0,0,32768,73728,106496
public.clusters_applications_cert_managers,public,clusters_applications_cert_managers,458752,24576,0,0,385024,491520,876544
public.clusters_applications_jupyter,public,clusters_applications_jupyter,65536,24576,0,0,106496,98304,204800
public.clusters_applications_knative,public,clusters_applications_knative,90112,24576,0,0,81920,122880,204800
public.clusters_applications_fluentd,public,clusters_applications_fluentd,0,0,0,0,16384,8192,24576
public.clusters_applications_crossplane,public,clusters_applications_crossplane,24576,24576,0,0,32768,57344,90112
public.clusters_applications_helm,public,clusters_applications_helm,37036032,32768,0,0,1458176,136404992,137863168
public.clusters_applications_prometheus,public,clusters_applications_prometheus,925696,24576,0,0,573440,958464,1531904
public.cluster_providers_gcp,public,cluster_providers_gcp,2236416,24576,0,0,1499136,2269184,3768320
public.clusters,public,clusters,3629056,24576,0,0,4292608,3710976,8003584
public.clusters_applications_runners,public,clusters_applications_runners,884736,24576,0,0,1155072,917504,2072576
public.clusters_applications_ingress,public,clusters_applications_ingress,974848,24576,0,0,860160,1007616,1867776
public.deployment_clusters,public,deployment_clusters,79626240,40960,0,0,162357248,79667200,242024448
public.container_expiration_policies,public,container_expiration_policies,127295488,49152,0,0,140312576,127344640,267657216
public.deployments,public,deployments,9835732992,2441216,0,0,36810121216,9838182400,46648303616
public.conversational_development_index_metrics,public,conversational_development_index_metrics,8192,0,0,0,16384,8192,24576
public.clusters_kubernetes_namespaces,public,clusters_kubernetes_namespaces,69009408,40960,0,0,13058048,72302592,85360640
public.deploy_keys_projects,public,deploy_keys_projects,37224448,32768,0,0,54820864,37257216,92078080
public.design_management_designs,public,design_management_designs,409600,24576,0,0,737280,442368,1179648
public.deploy_tokens,public,deploy_tokens,23044096,24576,0,0,39100416,23076864,62177280
public.deployment_merge_requests,public,deployment_merge_requests,691978240,188416,0,0,1973747712,692166656,2665914368
public.description_versions,public,description_versions,799580160,212992,0,0,81682432,1600487424,1682169856
public.dependency_proxy_group_settings,public,dependency_proxy_group_settings,57344,24576,0,0,81920,81920,163840
public.commit_user_mentions,public,commit_user_mentions,15335424,24576,0,0,22151168,15368192,37519360
public.dependency_proxy_blobs,public,dependency_proxy_blobs,16384,24576,0,0,32768,49152,81920
public.epic_user_mentions,public,epic_user_mentions,475136,24576,0,0,679936,507904,1187840
public.elasticsearch_indexed_projects,public,elasticsearch_indexed_projects,0,0,0,0,8192,0,8192
public.epic_issues,public,epic_issues,3350528,24576,0,0,6733824,3375104,10108928
public.emails,public,emails,21692416,24576,0,0,35463168,21725184,57188352
public.design_management_versions,public,design_management_versions,376832,24576,0,0,598016,409600,1007616
public.draft_notes,public,draft_notes,16490496,24576,0,0,3399680,16572416,19972096
public.events,public,events,47623438336,11722752,0,0,184822325248,47635169280,232457494528
public.evidences,public,evidences,73293824,40960,0,0,8454144,83927040,92381184
public.design_user_mentions,public,design_user_mentions,131072,24576,0,0,188416,163840,352256
public.epics,public,epics,12836864,24576,0,0,9011200,23945216,32956416
public.elasticsearch_indexed_namespaces,public,elasticsearch_indexed_namespaces,16384,24576,0,0,32768,40960,73728
public.epic_metrics,public,epic_metrics,24576,24576,0,0,32768,49152,81920
public.feature_gates,public,feature_gates,40960,24576,0,0,90112,73728,163840
public.features,public,features,16384,24576,0,0,49152,49152,98304
public.geo_events,public,geo_events,0,0,0,0,8192,8192,16384
public.fork_network_members,public,fork_network_members,28925952,24576,0,0,82305024,28950528,111255552
public.geo_cache_invalidation_events,public,geo_cache_invalidation_events,0,0,0,0,8192,8192,16384
public.geo_hashed_storage_attachments_events,public,geo_hashed_storage_attachments_events,0,0,0,0,16384,8192,24576
public.external_pull_requests,public,external_pull_requests,15106048,24576,0,0,9314304,15138816,24453120
public.geo_job_artifact_deleted_events,public,geo_job_artifact_deleted_events,0,0,0,0,16384,8192,24576
public.geo_container_repository_updated_events,public,geo_container_repository_updated_events,0,0,0,0,16384,0,16384
public.geo_hashed_storage_migrated_events,public,geo_hashed_storage_migrated_events,0,0,0,0,16384,8192,24576
public.fork_networks,public,fork_networks,8847360,24576,0,0,15187968,8880128,24068096
public.gpg_key_subkeys,public,gpg_key_subkeys,3350528,24576,0,0,7938048,3383296,11321344
public.geo_repository_updated_events,public,geo_repository_updated_events,0,0,0,0,24576,8192,32768
public.gitlab_subscriptions,public,gitlab_subscriptions,354058240,106496,0,0,455172096,354164736,809336832
public.geo_reset_checksum_events,public,geo_reset_checksum_events,0,0,0,0,16384,0,16384
public.geo_repository_created_events,public,geo_repository_created_events,0,0,0,0,16384,8192,24576
public.geo_node_namespace_links,public,geo_node_namespace_links,0,0,0,0,32768,0,32768
public.geo_repository_deleted_events,public,geo_repository_deleted_events,0,0,0,0,16384,8192,24576
public.gitlab_subscription_histories,public,gitlab_subscription_histories,7446528,24576,0,0,4366336,7471104,11837440
public.geo_repositories_changed_events,public,geo_repositories_changed_events,0,0,0,0,16384,0,16384
public.geo_repository_renamed_events,public,geo_repository_renamed_events,0,0,0,0,16384,8192,24576
public.geo_upload_deleted_events,public,geo_upload_deleted_events,0,0,0,0,16384,8192,24576
public.geo_lfs_object_deleted_events,public,geo_lfs_object_deleted_events,0,0,0,0,16384,8192,24576
public.geo_nodes,public,geo_nodes,0,0,0,0,32768,8192,40960
public.grafana_integrations,public,grafana_integrations,32768,24576,0,0,49152,65536,114688
public.group_custom_attributes,public,group_custom_attributes,0,0,0,0,24576,8192,32768
public.group_group_links,public,group_group_links,212992,24576,0,0,344064,237568,581632
public.historical_data,public,historical_data,65536,24576,0,0,40960,90112,131072
public.gpg_signatures,public,gpg_signatures,1884880896,483328,0,0,3114803200,1885372416,5000175616
public.identities,public,identities,177250304,65536,0,0,284336128,177324032,461660160
public.index_statuses,public,index_statuses,4292608,24576,0,0,1843200,4325376,6168576
public.import_export_uploads,public,import_export_uploads,9928704,24576,0,0,16711680,9961472,26673152
public.internal_ids,public,internal_ids,182501376,65536,0,0,408018944,182566912,590585856
public.import_failures,public,import_failures,3964928,24576,0,0,2236416,3997696,6234112
public.insights,public,insights,8192,0,0,0,49152,8192,57344
public.group_deploy_tokens,public,group_deploy_tokens,90112,24576,0,0,163840,114688,278528
public.gpg_keys,public,gpg_keys,14049280,24576,0,0,6144000,267157504,273301504
public.issue_user_mentions,public,issue_user_mentions,129179648,49152,0,0,165560320,129236992,294797312
public.jira_connect_installations,public,jira_connect_installations,450560,24576,0,0,204800,483328,688128
public.issue_metrics,public,issue_metrics,1285906432,335872,0,0,2629468160,1286242304,3915710464
public.issue_assignees,public,issue_assignees,477036544,139264,0,0,811589632,477175808,1288765440
public.jira_tracker_data,public,jira_tracker_data,18341888,24576,0,0,3489792,18374656,21864448
public.jira_connect_subscriptions,public,jira_connect_subscriptions,16384,24576,0,0,65536,40960,106496
public.keys,public,keys,2180308992,557056,0,0,828645376,2182709248,3011354624
public.issue_links,public,issue_links,32317440,24576,0,0,61202432,32342016,93544448
public.label_links,public,label_links,2289360896,581632,0,0,3599400960,2289942528,5889343488
public.ip_restrictions,public,ip_restrictions,8192,0,0,0,32768,16384,49152
public.jira_imports,public,jira_imports,0,0,0,0,32768,8192,40960
public.issues_prometheus_alert_events,public,issues_prometheus_alert_events,114688,24576,0,0,155648,139264,294912
public.issues_self_managed_prometheus_alert_events,public,issues_self_managed_prometheus_alert_events,8192,0,0,0,32768,8192,40960
public.issue_tracker_data,public,issue_tracker_data,4063232,24576,0,0,1572864,4112384,5685248
public.lfs_file_locks,public,lfs_file_locks,483328,24576,0,0,868352,516096,1384448
public.ldap_group_links,public,ldap_group_links,8192,0,0,0,16384,16384,32768
public.merge_request_blocks,public,merge_request_blocks,548864,24576,0,0,933888,573440,1507328
public.lfs_objects,public,lfs_objects,4916584448,1228800,0,0,4611014656,4917821440,9528836096
public.lfs_objects_projects,public,lfs_objects_projects,2561015808,647168,0,0,4138377216,2561662976,6700040192
public.licenses,public,licenses,8192,0,0,0,16384,16384,32768
public.labels,public,labels,1139777536,303104,0,0,2490966016,1140531200,3631497216
public.label_priorities,public,label_priorities,6160384,24576,0,0,12525568,6184960,18710528
public.lists,public,lists,282763264,90112,0,0,745504768,282853376,1028358144
public.members,public,members,1867767808,483328,0,0,4218159104,1868259328,6086418432
public.merge_request_assignees,public,merge_request_assignees,623271936,172032,0,0,1974820864,623443968,2598264832
public.list_user_preferences,public,list_user_preferences,22011904,24576,0,0,37355520,22036480,59392000
public.merge_request_context_commit_diff_files,public,merge_request_context_commit_diff_files,0,0,0,0,16384,8192,24576
public.merge_request_diff_commits,public,merge_request_diff_commits,689656086528,169549824,0,0,243995852800,706449604608,950445457408
public.metrics_dashboard_annotations,public,metrics_dashboard_annotations,0,0,0,0,24576,8192,32768
public.milestone_releases,public,milestone_releases,24576,24576,0,0,73728,49152,122880
public.milestones,public,milestones,209756160,73728,0,0,305684480,231333888,537018368
public.merge_trains,public,merge_trains,2023424,24576,0,0,3129344,2056192,5185536
public.merge_request_metrics,public,merge_request_metrics,3387662336,851968,0,0,9751830528,3388514304,13140344832
public.namespace_aggregation_schedules,public,namespace_aggregation_schedules,671744,24576,0,0,1163264,696320,1859584
public.merge_requests_closing_issues,public,merge_requests_closing_issues,148668416,57344,0,0,220151808,148725760,368877568
public.namespace_statistics,public,namespace_statistics,28860416,24576,0,0,32661504,28884992,61546496
public.merge_request_context_commits,public,merge_request_context_commits,0,0,0,0,24576,8192,32768
public.merge_request_diff_files,public,merge_request_diff_files,928407625728,228237312,0,0,48479838208,1719689830400,1768169668608
public.namespace_root_storage_statistics,public,namespace_root_storage_statistics,102621184,49152,0,0,64634880,102670336,167305216
public.merge_request_user_mentions,public,merge_request_user_mentions,98705408,40960,0,0,152567808,98754560,251322368
public.notes,public,notes,194604957696,47857664,0,0,179091324928,206697758720,385789083648
public.operations_feature_flag_scopes,public,operations_feature_flag_scopes,221184,24576,0,0,163840,253952,417792
public.oauth_access_grants,public,oauth_access_grants,652869632,180224,0,0,563970048,653058048,1217028096
public.namespaces,public,namespaces,922320896,245760,0,0,4443709440,922574848,5366284288
public.open_project_tracker_data,public,open_project_tracker_data,0,0,0,0,16384,8192,24576
public.oauth_access_tokens,public,oauth_access_tokens,850796544,229376,0,0,1433985024,851034112,2285019136
public.note_diff_files,public,note_diff_files,9001639936,2236416,0,0,703528960,11915083776,12618612736
public.oauth_applications,public,oauth_applications,11419648,24576,0,0,8060928,11509760,19570688
public.notification_settings,public,notification_settings,1432502272,368640,0,0,2808668160,1432879104,4241547264
public.operations_strategies,public,operations_strategies,8192,0,0,0,32768,16384,49152
public.packages_conan_metadata,public,packages_conan_metadata,8192,0,0,0,32768,16384,49152
public.packages_build_infos,public,packages_build_infos,2408448,24576,0,0,5554176,2433024,7987200
public.operations_feature_flags,public,operations_feature_flags,90112,24576,0,0,155648,122880,278528
public.packages_conan_file_metadata,public,packages_conan_file_metadata,40960,24576,0,0,32768,73728,106496
public.packages_maven_metadata,public,packages_maven_metadata,17195008,24576,0,0,17399808,17227776,34627584
public.packages_tags,public,packages_tags,90112,24576,0,0,180224,114688,294912
public.packages_packages,public,packages_packages,14082048,24576,0,0,47996928,14114816,62111744
public.packages_dependencies,public,packages_dependencies,679936,24576,0,0,958464,712704,1671168
public.packages_dependency_links,public,packages_dependency_links,20299776,24576,0,0,48586752,20324352,68911104
public.operations_feature_flags_clients,public,operations_feature_flags_clients,1376256,24576,0,0,2056192,1409024,3465216
public.operations_scopes,public,operations_scopes,8192,0,0,0,32768,8192,40960
public.personal_access_tokens,public,personal_access_tokens,393641984,114688,0,0,525254656,393945088,919199744
public.pool_repositories,public,pool_repositories,3203072,24576,0,0,5636096,3235840,8871936
public.project_authorizations,public,project_authorizations,4002226176,1007616,0,0,6708994048,4003233792,10712227840
public.pages_domains,public,pages_domains,5562368,24576,0,0,9814016,136970240,146784256
public.plans,public,plans,8192,0,0,0,32768,16384,49152
public.project_aliases,public,project_aliases,8192,0,0,0,49152,16384,65536
public.project_auto_devops,public,project_auto_devops,31694848,24576,0,0,34340864,31719424,66060288
public.project_ci_cd_settings,public,project_ci_cd_settings,584990720,163840,0,0,1074651136,585154560,1659805696
public.path_locks,public,path_locks,983040,24576,0,0,1859584,1015808,2875392
public.project_alerting_settings,public,project_alerting_settings,8192,0,0,0,16384,16384,32768
public.plan_limits,public,plan_limits,8192,0,0,0,32768,8192,40960
public.pages_domain_acme_orders,public,pages_domain_acme_orders,491520,24576,0,0,311296,9093120,9404416
public.programming_languages,public,programming_languages,24576,24576,0,0,32768,57344,90112
public.project_incident_management_settings,public,project_incident_management_settings,24576,24576,0,0,32768,57344,90112
public.project_deploy_tokens,public,project_deploy_tokens,7102464,24576,0,0,14393344,7127040,21520384
public.project_feature_usages,public,project_feature_usages,1359872,24576,0,0,3235840,1384448,4620288
public.project_custom_attributes,public,project_custom_attributes,8192,0,0,0,49152,16384,65536
public.project_group_links,public,project_group_links,11583488,24576,0,0,15409152,11608064,27017216
public.project_pages_metadata,public,project_pages_metadata,578609152,163840,0,0,549478400,578772992,1128251392
public.project_statistics,public,project_statistics,1523556352,393216,0,0,1220263936,1523949568,2744213504
public.project_mirror_data,public,project_mirror_data,224215040,73728,0,0,532389888,292814848,825204736
public.project_import_data,public,project_import_data,105865216,49152,0,0,35291136,219537408,254828544
public.project_repository_states,public,project_repository_states,830316544,221184,0,0,1094909952,830545920,1925455872
public.project_metrics_settings,public,project_metrics_settings,32768,24576,0,0,16384,65536,81920
public.project_repositories,public,project_repositories,1646624768,425984,0,0,3083558912,1647058944,4730617856
public.project_daily_statistics,public,project_daily_statistics,2383601664,606208,0,0,2750087168,2384207872,5134295040
public.project_error_tracking_settings,public,project_error_tracking_settings,884736,24576,0,0,122880,917504,1040384
public.project_settings,public,project_settings,681803776,188416,0,0,553238528,681992192,1235230720
public.project_export_jobs,public,project_export_jobs,19439616,24576,0,0,50348032,19464192,69812224
public.protected_branch_push_access_levels,public,protected_branch_push_access_levels,655876096,180224,0,0,1450180608,656056320,2106236928
public.protected_branch_unprotect_access_levels,public,protected_branch_unprotect_access_levels,1630208,24576,0,0,4317184,1654784,5971968
public.protected_environments,public,protected_environments,876544,24576,0,0,1400832,909312,2310144
public.protected_branch_merge_access_levels,public,protected_branch_merge_access_levels,655843328,180224,0,0,1451597824,656023552,2107621376
public.project_tracing_settings,public,project_tracing_settings,16384,24576,0,0,32768,49152,81920
public.protected_tag_create_access_levels,public,protected_tag_create_access_levels,1712128,24576,0,0,3751936,1736704,5488640
public.protected_branches,public,protected_branches,742891520,204800,0,0,821993472,743104512,1565097984
public.protected_tags,public,protected_tags,1687552,24576,0,0,2719744,1720320,4440064
public.prometheus_alerts,public,prometheus_alerts,8192,0,0,0,65536,8192,73728
public.prometheus_alert_events,public,prometheus_alert_events,212992,24576,0,0,344064,245760,589824
public.protected_environment_deploy_access_levels,public,protected_environment_deploy_access_levels,983040,24576,0,0,1900544,1007616,2908160
public.prometheus_metrics,public,prometheus_metrics,172032,24576,0,0,212992,204800,417792
public.requirements,public,requirements,0,0,0,0,73728,8192,81920
public.redirect_routes,public,redirect_routes,128557056,49152,0,0,287858688,128614400,416473088
public.resource_milestone_events,public,resource_milestone_events,0,0,0,0,40960,8192,49152
public.push_rules,public,push_rules,437837824,131072,0,0,422854656,437977088,860831744
public.releases,public,releases,566763520,163840,0,0,106127360,712007680,818135040
public.resource_label_events,public,resource_label_events,19615645696,4841472,0,0,7189127168,19620667392,26809794560
public.resource_weight_events,public,resource_weight_events,0,0,0,0,24576,0,24576
public.repository_languages,public,repository_languages,798949376,212992,0,0,528523264,799162368,1327685632
public.routes,public,routes,2274639872,581632,0,0,4919828480,2275229696,7195058176
public.reviews,public,reviews,17801216,24576,0,0,36093952,17825792,53919744
public.push_event_payloads,public,push_event_payloads,62591205376,15400960,0,0,14263083008,62606614528,76869697536
public.remote_mirrors,public,remote_mirrors,22470656,24576,0,0,4857856,40689664,45547520
public.release_links,public,release_links,4521984,24576,0,0,8077312,4554752,12632064
public.service_desk_settings,public,service_desk_settings,49152,24576,0,0,49152,81920,131072
public.schema_migrations,public,schema_migrations,114688,24576,0,0,98304,147456,245760
public.scim_identities,public,scim_identities,0,0,0,0,32768,0,32768
public.sent_notifications,public,sent_notifications,47647350784,11730944,0,0,39975886848,47659089920,87634976768
public.scim_oauth_access_tokens,public,scim_oauth_access_tokens,32768,24576,0,0,57344,65536,122880
public.self_managed_prometheus_alert_events,public,self_managed_prometheus_alert_events,8192,0,0,0,49152,16384,65536
public.saml_providers,public,saml_providers,114688,24576,0,0,81920,147456,229376
public.sentry_issues,public,sentry_issues,32768,24576,0,0,98304,57344,155648
public.shards,public,shards,8192,0,0,0,32768,16384,49152
public.security_scans,public,security_scans,88662016,40960,0,0,166592512,88702976,255295488
public.slack_integrations,public,slack_integrations,3768320,24576,0,0,5038080,3801088,8839168
public.serverless_domain_cluster,public,serverless_domain_cluster,0,0,0,0,32768,8192,40960
public.status_page_settings,public,status_page_settings,8192,0,0,0,32768,16384,49152
public.smartcard_identities,public,smartcard_identities,0,0,0,0,24576,8192,32768
public.system_note_metadata,public,system_note_metadata,12042567680,2981888,0,0,11213103104,12045557760,23258660864
public.snippet_repositories,public,snippet_repositories,8192,0,0,0,49152,8192,57344
public.spam_logs,public,spam_logs,202317824,73728,0,0,12918784,465207296,478126080
public.software_licenses,public,software_licenses,57344,24576,0,0,172032,90112,262144
public.snippet_user_mentions,public,snippet_user_mentions,24576,24576,0,0,65536,57344,122880
public.suggestions,public,suggestions,70262784,40960,0,0,17432576,70590464,88023040
public.taggings,public,taggings,14116495360,3489792,0,0,57122807808,14119993344,71242801152
public.snippets,public,snippets,281305088,90112,0,0,687407104,1739071488,2426478592
public.subscriptions,public,subscriptions,34594816,32768,0,0,53190656,34627584,87818240
public.tags,public,tags,10780672,24576,0,0,28540928,10813440,39354368
public.trending_projects,public,trending_projects,8192,0,0,0,32768,8192,40960
public.user_canonical_emails,public,user_canonical_emails,2809856,24576,0,0,6545408,2842624,9388032
public.untracked_files_for_uploads,public,untracked_files_for_uploads,2039808,24576,0,0,3276800,2072576,5349376
public.uploads,public,uploads,3140591616,794624,0,0,4597932032,3141394432,7739326464
public.user_agent_details,public,user_agent_details,3438600192,868352,0,0,1627070464,3439476736,5066547200
public.user_callouts,public,user_callouts,73482240,40960,0,0,143851520,73523200,217374720
public.term_agreements,public,term_agreements,257630208,81920,0,0,602849280,257712128,860561408
public.todos,public,todos,4512849920,1130496,0,0,15216132096,4513988608,19730120704
public.user_custom_attributes,public,user_custom_attributes,8192,0,0,0,49152,16384,65536
public.terraform_states,public,terraform_states,0,0,0,0,16384,0,16384
public.u2f_registrations,public,u2f_registrations,17645568,24576,0,0,4366336,17678336,22044672
public.timelogs,public,timelogs,123633664,49152,0,0,241213440,123682816,364896256
public.users_ops_dashboard_projects,public,users_ops_dashboard_projects,909312,24576,0,0,1466368,933888,2400256
public.vulnerability_exports,public,vulnerability_exports,0,0,0,0,24576,8192,32768
public.vulnerabilities,public,vulnerabilities,227704832,73728,0,0,459096064,227786752,686882816
public.users_statistics,public,users_statistics,0,0,0,0,8192,0,8192
public.users_star_projects,public,users_star_projects,28442624,24576,0,0,45367296,28467200,73834496
public.user_details,public,user_details,26189824,24576,0,0,13598720,26214400,39813120
public.user_interacted_projects,public,user_interacted_projects,739835904,204800,0,0,1216487424,740040704,1956528128
public.users,public,users,2562793472,647168,0,0,5865775104,2566438912,8432214016
public.vulnerability_feedback,public,vulnerability_feedback,1212416,24576,0,0,2539520,1245184,3784704
public.user_synced_attributes_metadata,public,user_synced_attributes_metadata,0,0,0,0,16384,8192,24576
public.users_security_dashboard_projects,public,users_security_dashboard_projects,40960,24576,0,0,81920,65536,147456
public.user_statuses,public,user_statuses,8273920,24576,0,0,6111232,8306688,14417920
public.user_highest_roles,public,user_highest_roles,248479744,81920,0,0,513908736,248561664,762470400
public.user_preferences,public,user_preferences,275546112,90112,0,0,244252672,275644416,519897088
public.vulnerability_user_mentions,public,vulnerability_user_mentions,0,0,0,0,32768,8192,40960
public.vulnerability_occurrence_pipelines,public,vulnerability_occurrence_pipelines,3670720512,925696,0,0,5646704640,3671646208,9318350848
public.wiki_page_meta,public,wiki_page_meta,0,0,0,0,16384,0,16384
public.vulnerability_identifiers,public,vulnerability_identifiers,105185280,49152,0,0,61194240,105242624,166436864
public.vulnerability_occurrences,public,vulnerability_occurrences,3126288384,786432,0,0,809066496,3142221824,3951288320
public.x509_certificates,public,x509_certificates,8192,0,0,0,49152,16384,65536
public.vulnerability_scanners,public,vulnerability_scanners,1089536,24576,0,0,1171456,1122304,2293760
public.web_hook_logs,public,web_hook_logs,121020194816,29761536,0,0,10263953408,172675596288,182939549696
public.web_hooks,public,web_hooks,133316608,49152,0,0,52084736,133455872,185540608
public.x509_commit_signatures,public,x509_commit_signatures,114688,24576,0,0,245760,147456,393216
public.vulnerability_occurrence_identifiers,public,vulnerability_occurrence_identifiers,192405504,65536,0,0,305348608,192471040,497819648
public.vulnerability_issue_links,public,vulnerability_issue_links,0,0,0,0,32768,0,32768
public.x509_issuers,public,x509_issuers,8192,0,0,0,32768,16384,49152
public.ci_builds,public,ci_builds,501282209792,123240448,0,0,407644930048,653569925120,1061214855168
public.services,public,services,663191552,180224,0,0,739041280,663379968,1402421248
public.ci_runners,public,ci_runners,133595136,57344,0,0,162168832,133660672,295829504
public.issues,public,issues,17472806912,4317184,0,0,27663319040,24647680000,52310999040
public.merge_request_diffs,public,merge_request_diffs,16769744896,4145152,0,0,6653091840,16773898240,23426990080
public.merge_requests,public,merge_requests,20903854080,5160960,0,0,36479295488,22967025664,59446321152
public.projects,public,projects,3676807168,925696,0,0,17009885184,3678494720,20688379904
public.group_deletion_schedules,public,group_deletion_schedules,49152,24576,0,0,131072,73728,204800
public.geo_event_log,public,geo_event_log,0,0,0,0,122880,0,122880
public.project_features,public,project_features,1215864832,319488,0,0,1884651520,1216184320,3100835840
public.ci_pipelines,public,ci_pipelines,26992009216,6651904,0,0,73238847488,26998685696,100237533184
public.container_repositories,public,container_repositories,52248576,32768,0,0,84492288,52289536,136781824
public.oauth_openid_requests,public,oauth_openid_requests,98304,24576,0,0,81920,131072,212992
public.application_setting_terms,public,application_setting_terms,16384,24576,0,0,16384,49152,65536
public.packages_package_files,public,packages_package_files,225878016,73728,0,0,127426560,225959936,353386496
public.environments,public,environments,204808192,73728,0,0,372957184,204890112,577847296
public.ci_trigger_requests,public,ci_trigger_requests,227098624,73728,0,0,380444672,227180544,607625216
public.design_management_designs_versions,public,design_management_designs_versions,434176,24576,0,0,1179648,458752,1638400
public.geo_node_statuses,public,geo_node_statuses,0,0,0,0,16384,8192,24576
public.ci_build_trace_chunks,public,ci_build_trace_chunks,65536,24576,0,0,98304,98304,196608
public.zoom_meetings,public,zoom_meetings,8192,0,0,0,81920,8192,90112
public.wiki_page_slugs,public,wiki_page_slugs,0,0,0,0,32768,8192,40960
public.software_license_policies,public,software_license_policies,221184,24576,0,0,434176,245760,679936
