t,schemaname,tablename,relation_size_main,relation_size_fsm,relation_size_vm,relation_size_init,indexes_size,table_size,total_relation_size
public.application_settings,public,application_settings,8192,0,0,0,98304,81920,180224
public.abuse_reports,public,abuse_reports,16384,24576,0,0,32768,49152,81920
public.appearances,public,appearances,8192,0,0,0,16384,16384,32768
public.approval_merge_request_rules,public,approval_merge_request_rules,500744192,147456,0,0,509394944,500916224,1010311168
pg_catalog.pg_statistic,pg_catalog,pg_statistic,2064384,24576,8192,0,106496,4956160,5062656
pg_catalog.pg_type,pg_catalog,pg_type,294912,24576,8192,0,188416,335872,524288
public.analytics_cycle_analytics_project_stages,public,analytics_cycle_analytics_project_stages,0,0,0,0,49152,0,49152
public.approval_merge_request_rules_groups,public,approval_merge_request_rules_groups,38617088,32768,0,0,82821120,38649856,121470976
public.analytics_cycle_analytics_group_stages,public,analytics_cycle_analytics_group_stages,16384,24576,0,0,114688,40960,155648
public.approval_merge_request_rule_sources,public,approval_merge_request_rule_sources,116916224,49152,0,0,227500032,116965376,344465408
public.approval_merge_request_rules_approved_approvers,public,approval_merge_request_rules_approved_approvers,144687104,57344,0,0,297238528,144744448,441982976
public.analytics_language_trend_repository_languages,public,analytics_language_trend_repository_languages,0,0,0,0,16384,0,16384
public.allowed_email_domains,public,allowed_email_domains,24576,24576,0,0,32768,49152,81920
public.alerts_service_data,public,alerts_service_data,24576,24576,0,0,32768,57344,90112
public.approval_project_rules_protected_branches,public,approval_project_rules_protected_branches,57344,24576,0,0,139264,81920,221184
pg_catalog.pg_foreign_server,pg_catalog,pg_foreign_server,0,0,0,0,16384,8192,24576
public.approvals,public,approvals,298745856,90112,0,0,481402880,298835968,780238848
public.approval_project_rules_groups,public,approval_project_rules_groups,901120,24576,0,0,1990656,925696,2916352
public.approval_project_rules,public,approval_project_rules,6520832,24576,0,0,8962048,6553600,15515648
public.approval_merge_request_rules_users,public,approval_merge_request_rules_users,919535616,245760,0,0,1976500224,919781376,2896281600
public.approval_project_rules_users,public,approval_project_rules_users,5439488,24576,0,0,11706368,5464064,17170432
pg_catalog.pg_authid,pg_catalog,pg_authid,8192,24576,8192,0,32768,49152,81920
public.approvers,public,approvers,271147008,90112,0,0,479305728,271237120,750542848
public.ar_internal_metadata,public,ar_internal_metadata,8192,0,0,0,16384,16384,32768
public.audit_events,public,audit_events,71093936128,17489920,0,0,32173973504,71118389248,103292362752
public.approver_groups,public,approver_groups,17883136,24576,0,0,30081024,17915904,47996928
pg_catalog.pg_statistic_ext_data,pg_catalog,pg_statistic_ext_data,0,0,0,0,8192,8192,16384
public.award_emoji,public,award_emoji,298246144,90112,0,0,470384640,298344448,768729088
public.badges,public,badges,8437760,24576,0,0,3383296,8732672,12115968
public.board_group_recent_visits,public,board_group_recent_visits,2572288,24576,0,0,6004736,2596864,8601600
public.board_assignees,public,board_assignees,106496,24576,0,0,278528,131072,409600
public.broadcast_messages,public,broadcast_messages,0,0,0,0,16384,8192,24576
public.boards,public,boards,91963392,40960,0,0,140443648,92422144,232865792
public.aws_roles,public,aws_roles,114688,24576,0,0,172032,147456,319488
public.chat_names,public,chat_names,32768,24576,0,0,90112,65536,155648
public.board_labels,public,board_labels,524288,24576,0,0,1171456,548864,1720320
public.chat_teams,public,chat_teams,0,0,0,0,16384,8192,24576
public.board_project_recent_visits,public,board_project_recent_visits,9265152,24576,0,0,21585920,9289728,30875648
pg_catalog.pg_user_mapping,pg_catalog,pg_user_mapping,0,0,0,0,16384,8192,24576
pg_catalog.pg_subscription,pg_catalog,pg_subscription,0,0,0,0,16384,8192,24576
public.ci_build_needs,public,ci_build_needs,2811928576,712704,0,0,5274460160,2812649472,8087109632
pg_catalog.pg_attribute,pg_catalog,pg_attribute,2310144,24576,8192,0,892928,2342912,3235840
pg_catalog.pg_proc,pg_catalog,pg_proc,704512,24576,8192,0,360448,745472,1105920
pg_catalog.pg_class,pg_catalog,pg_class,532480,24576,8192,0,409600,565248,974848
pg_catalog.pg_attrdef,pg_catalog,pg_attrdef,270336,24576,0,0,81920,303104,385024
pg_catalog.pg_constraint,pg_catalog,pg_constraint,204800,24576,8192,0,294912,245760,540672
pg_catalog.pg_inherits,pg_catalog,pg_inherits,0,0,0,0,16384,0,16384
pg_catalog.pg_index,pg_catalog,pg_index,368640,24576,8192,0,122880,401408,524288
pg_catalog.pg_operator,pg_catalog,pg_operator,114688,24576,8192,0,81920,147456,229376
pg_catalog.pg_opfamily,pg_catalog,pg_opfamily,16384,24576,8192,0,32768,49152,81920
pg_catalog.pg_opclass,pg_catalog,pg_opclass,24576,24576,8192,0,32768,57344,90112
pg_catalog.pg_am,pg_catalog,pg_am,8192,24576,8192,0,32768,40960,73728
pg_catalog.pg_amop,pg_catalog,pg_amop,57344,24576,8192,0,147456,90112,237568
pg_catalog.pg_amproc,pg_catalog,pg_amproc,32768,24576,8192,0,73728,65536,139264
pg_catalog.pg_language,pg_catalog,pg_language,8192,24576,8192,0,32768,49152,81920
pg_catalog.pg_largeobject_metadata,pg_catalog,pg_largeobject_metadata,0,0,0,0,8192,0,8192
pg_catalog.pg_aggregate,pg_catalog,pg_aggregate,16384,24576,8192,0,16384,57344,73728
pg_catalog.pg_largeobject,pg_catalog,pg_largeobject,0,0,0,0,8192,0,8192
public.ci_build_trace_chunks,public,ci_build_trace_chunks,65536,24576,0,0,106496,98304,204800
public.ci_build_trace_section_names,public,ci_build_trace_section_names,701816832,196608,0,0,1113120768,702021632,1815142400
pg_catalog.pg_statistic_ext,pg_catalog,pg_statistic_ext,0,0,0,0,24576,8192,32768
pg_catalog.pg_rewrite,pg_catalog,pg_rewrite,106496,24576,8192,0,32768,655360,688128
pg_catalog.pg_trigger,pg_catalog,pg_trigger,2007040,24576,8192,0,811008,2064384,2875392
pg_catalog.pg_event_trigger,pg_catalog,pg_event_trigger,0,0,0,0,16384,8192,24576
pg_catalog.pg_description,pg_catalog,pg_description,335872,24576,8192,0,196608,376832,573440
pg_catalog.pg_cast,pg_catalog,pg_cast,16384,24576,8192,0,32768,49152,81920
pg_catalog.pg_enum,pg_catalog,pg_enum,0,0,0,0,24576,0,24576
pg_catalog.pg_namespace,pg_catalog,pg_namespace,8192,24576,8192,0,32768,49152,81920
pg_catalog.pg_conversion,pg_catalog,pg_conversion,24576,24576,8192,0,49152,57344,106496
pg_catalog.pg_depend,pg_catalog,pg_depend,1114112,24576,8192,0,1515520,1146880,2662400
pg_catalog.pg_database,pg_catalog,pg_database,8192,24576,8192,0,32768,49152,81920
pg_catalog.pg_db_role_setting,pg_catalog,pg_db_role_setting,0,0,0,0,8192,8192,16384
pg_catalog.pg_tablespace,pg_catalog,pg_tablespace,8192,24576,8192,0,32768,49152,81920
pg_catalog.pg_pltemplate,pg_catalog,pg_pltemplate,8192,24576,8192,0,16384,49152,65536
pg_catalog.pg_auth_members,pg_catalog,pg_auth_members,8192,24576,8192,0,32768,40960,73728
pg_catalog.pg_shdepend,pg_catalog,pg_shdepend,8192,24576,8192,0,32768,40960,73728
pg_catalog.pg_shdescription,pg_catalog,pg_shdescription,8192,24576,8192,0,16384,49152,65536
pg_catalog.pg_ts_config,pg_catalog,pg_ts_config,8192,24576,8192,0,32768,40960,73728
pg_catalog.pg_ts_config_map,pg_catalog,pg_ts_config_map,24576,24576,8192,0,32768,57344,90112
pg_catalog.pg_ts_dict,pg_catalog,pg_ts_dict,8192,24576,8192,0,32768,49152,81920
pg_catalog.pg_ts_parser,pg_catalog,pg_ts_parser,8192,24576,8192,0,32768,40960,73728
pg_catalog.pg_ts_template,pg_catalog,pg_ts_template,8192,24576,8192,0,32768,40960,73728
pg_catalog.pg_extension,pg_catalog,pg_extension,8192,24576,8192,0,32768,49152,81920
pg_catalog.pg_foreign_data_wrapper,pg_catalog,pg_foreign_data_wrapper,8192,0,0,0,32768,16384,49152
pg_catalog.pg_foreign_table,pg_catalog,pg_foreign_table,0,0,0,0,8192,8192,16384
pg_catalog.pg_policy,pg_catalog,pg_policy,0,0,0,0,16384,8192,24576
pg_catalog.pg_replication_origin,pg_catalog,pg_replication_origin,0,0,0,0,16384,8192,24576
pg_catalog.pg_default_acl,pg_catalog,pg_default_acl,0,0,0,0,16384,8192,24576
pg_catalog.pg_init_privs,pg_catalog,pg_init_privs,24576,24576,8192,0,16384,65536,81920
pg_catalog.pg_seclabel,pg_catalog,pg_seclabel,0,0,0,0,8192,8192,16384
pg_catalog.pg_shseclabel,pg_catalog,pg_shseclabel,0,0,0,0,8192,8192,16384
pg_catalog.pg_collation,pg_catalog,pg_collation,196608,24576,8192,0,81920,237568,319488
pg_catalog.pg_partitioned_table,pg_catalog,pg_partitioned_table,0,0,0,0,8192,8192,16384
pg_catalog.pg_range,pg_catalog,pg_range,8192,24576,8192,0,16384,40960,57344
pg_catalog.pg_transform,pg_catalog,pg_transform,0,0,0,0,16384,0,16384
pg_catalog.pg_sequence,pg_catalog,pg_sequence,32768,24576,0,0,16384,57344,73728
pg_catalog.pg_publication,pg_catalog,pg_publication,0,0,0,0,16384,0,16384
pg_catalog.pg_publication_rel,pg_catalog,pg_publication_rel,0,0,0,0,16384,0,16384
pg_catalog.pg_subscription_rel,pg_catalog,pg_subscription_rel,0,0,0,0,8192,0,8192
information_schema.sql_packages,information_schema,sql_packages,8192,24576,8192,0,0,49152,49152
information_schema.sql_features,information_schema,sql_features,65536,24576,8192,0,0,106496,106496
information_schema.sql_implementation_info,information_schema,sql_implementation_info,8192,24576,8192,0,0,49152,49152
information_schema.sql_parts,information_schema,sql_parts,8192,24576,8192,0,0,49152,49152
information_schema.sql_languages,information_schema,sql_languages,8192,24576,8192,0,0,49152,49152
information_schema.sql_sizing,information_schema,sql_sizing,8192,24576,8192,0,0,49152,49152
information_schema.sql_sizing_profiles,information_schema,sql_sizing_profiles,0,0,0,0,0,8192,8192
public.ci_builds,public,ci_builds,508424888320,124993536,0,0,392607612928,661963800576,1054571413504
public.ci_job_artifacts,public,ci_job_artifacts,66733850624,16424960,0,0,62950531072,66750283776,129700814848
public.ci_builds_metadata,public,ci_builds_metadata,23875043328,5890048,0,0,34330419200,23880941568,58211360768
public.ci_pipeline_schedules,public,ci_pipeline_schedules,3817472,24576,0,0,4038656,3866624,7905280
public.ci_daily_report_results,public,ci_daily_report_results,20496384,24576,0,0,30801920,20529152,51331072
public.ci_builds_runner_session,public,ci_builds_runner_session,245760,24576,0,0,32768,278528,311296
public.ci_pipeline_variables,public,ci_pipeline_variables,9519431680,2359296,0,0,7002112000,11405377536,18407489536
public.ci_pipeline_schedule_variables,public,ci_pipeline_schedule_variables,4259840,24576,0,0,2023424,4866048,6889472
public.ci_pipeline_chat_data,public,ci_pipeline_chat_data,24576,24576,0,0,49152,57344,106496
public.ci_group_variables,public,ci_group_variables,24444928,24576,0,0,9035776,80510976,89546752
public.ci_pipelines,public,ci_pipelines,26992009216,6651904,0,0,69433180160,26998685696,96431865856
public.ci_job_variables,public,ci_job_variables,2826240,24576,0,0,2629632,3391488,6021120
public.cluster_groups,public,cluster_groups,188416,24576,0,0,466944,212992,679936
public.ci_sources_pipelines,public,ci_sources_pipelines,79233024,40960,0,0,284729344,79273984,364003328
public.ci_runner_projects,public,ci_runner_projects,27115520,24576,0,0,40304640,27140096,67444736
public.ci_resources,public,ci_resources,1245184,24576,0,0,1974272,1269760,3244032
public.ci_subscriptions_projects,public,ci_subscriptions_projects,8192,0,0,0,49152,8192,57344
public.ci_triggers,public,ci_triggers,5414912,24576,0,0,4431872,5513216,9945088
public.ci_stages,public,ci_stages,19699892224,4857856,0,0,37235646464,19704758272,56940404736
public.ci_resource_groups,public,ci_resource_groups,2301952,24576,0,0,3006464,2326528,5332992
public.ci_variables,public,ci_variables,261668864,81920,0,0,116539392,865402880,981942272
public.ci_sources_projects,public,ci_sources_projects,8192,0,0,0,49152,8192,57344
public.ci_refs,public,ci_refs,47259648,32768,0,0,68886528,47300608,116187136
public.ci_runner_namespaces,public,ci_runner_namespaces,7225344,24576,0,0,14721024,7249920,21970944
public.ci_pipelines_config,public,ci_pipelines_config,1917919232,491520,0,0,1470988288,1918418944,3389407232
public.clusters_applications_helm,public,clusters_applications_helm,37036032,32768,0,0,1392640,136404992,137797632
public.clusters_applications_ingress,public,clusters_applications_ingress,974848,24576,0,0,811008,1007616,1818624
public.clusters_applications_elastic_stacks,public,clusters_applications_elastic_stacks,40960,24576,0,0,32768,73728,106496
public.cluster_platforms_kubernetes,public,cluster_platforms_kubernetes,44466176,32768,0,0,2195456,86261760,88457216
public.clusters_applications_cert_managers,public,clusters_applications_cert_managers,458752,24576,0,0,368640,491520,860160
public.clusters_applications_jupyter,public,clusters_applications_jupyter,65536,24576,0,0,106496,98304,204800
public.cluster_providers_gcp,public,cluster_providers_gcp,2236416,24576,0,0,1335296,2269184,3604480
public.cluster_projects,public,cluster_projects,1466368,24576,0,0,2383872,1490944,3874816
public.clusters_applications_crossplane,public,clusters_applications_crossplane,24576,24576,0,0,32768,57344,90112
public.cluster_providers_aws,public,cluster_providers_aws,114688,24576,0,0,81920,147456,229376
public.clusters,public,clusters,3629056,24576,0,0,3637248,3710976,7348224
public.clusters_applications_fluentd,public,clusters_applications_fluentd,0,0,0,0,16384,8192,24576
public.clusters_applications_prometheus,public,clusters_applications_prometheus,925696,24576,0,0,598016,958464,1556480
public.dependency_proxy_group_settings,public,dependency_proxy_group_settings,57344,24576,0,0,81920,81920,163840
public.container_repositories,public,container_repositories,52248576,32768,0,0,83632128,52289536,135921664
public.deployment_clusters,public,deployment_clusters,79626240,40960,0,0,155754496,79667200,235421696
public.container_expiration_policies,public,container_expiration_policies,127295488,49152,0,0,132300800,127344640,259645440
public.deploy_keys_projects,public,deploy_keys_projects,37224448,32768,0,0,53043200,37257216,90300416
public.conversational_development_index_metrics,public,conversational_development_index_metrics,8192,0,0,0,16384,8192,24576
public.clusters_kubernetes_namespaces,public,clusters_kubernetes_namespaces,69009408,40960,0,0,12165120,72302592,84467712
public.clusters_applications_runners,public,clusters_applications_runners,884736,24576,0,0,1138688,917504,2056192
public.deployment_merge_requests,public,deployment_merge_requests,691978240,188416,0,0,1927077888,692166656,2619244544
public.deploy_tokens,public,deploy_tokens,23044096,24576,0,0,37879808,23076864,60956672
public.clusters_applications_knative,public,clusters_applications_knative,90112,24576,0,0,81920,122880,204800
public.commit_user_mentions,public,commit_user_mentions,15335424,24576,0,0,21757952,15368192,37126144
public.dependency_proxy_blobs,public,dependency_proxy_blobs,16384,24576,0,0,32768,49152,81920
public.design_management_designs,public,design_management_designs,409600,24576,0,0,753664,442368,1196032
public.draft_notes,public,draft_notes,16490496,24576,0,0,3301376,16572416,19873792
public.description_versions,public,description_versions,799580160,212992,0,0,79921152,1600487424,1680408576
public.elasticsearch_indexed_projects,public,elasticsearch_indexed_projects,0,0,0,0,8192,0,8192
public.epic_issues,public,epic_issues,3350528,24576,0,0,6733824,3375104,10108928
public.emails,public,emails,21692416,24576,0,0,33521664,21725184,55246848
public.design_management_versions,public,design_management_versions,376832,24576,0,0,589824,409600,999424
public.deployments,public,deployments,9835732992,2441216,0,0,34237898752,9838182400,44076081152
public.environments,public,environments,204808192,73728,0,0,370286592,204890112,575176704
public.design_user_mentions,public,design_user_mentions,131072,24576,0,0,188416,163840,352256
public.elasticsearch_indexed_namespaces,public,elasticsearch_indexed_namespaces,16384,24576,0,0,32768,40960,73728
public.epic_metrics,public,epic_metrics,24576,24576,0,0,32768,49152,81920
public.geo_event_log,public,geo_event_log,0,0,0,0,122880,0,122880
public.geo_cache_invalidation_events,public,geo_cache_invalidation_events,0,0,0,0,8192,8192,16384
public.geo_container_repository_updated_events,public,geo_container_repository_updated_events,0,0,0,0,16384,0,16384
public.feature_gates,public,feature_gates,40960,24576,0,0,90112,73728,163840
public.features,public,features,16384,24576,0,0,49152,49152,98304
public.geo_events,public,geo_events,0,0,0,0,8192,8192,16384
public.fork_network_members,public,fork_network_members,28925952,24576,0,0,79003648,28950528,107954176
public.epic_user_mentions,public,epic_user_mentions,475136,24576,0,0,647168,507904,1155072
public.epics,public,epics,12836864,24576,0,0,8536064,23945216,32481280
public.external_pull_requests,public,external_pull_requests,15106048,24576,0,0,9109504,15138816,24248320
public.events,public,events,47623438336,11722752,0,0,172959408128,47635169280,220594577408
public.fork_networks,public,fork_networks,8847360,24576,0,0,14655488,8880128,23535616
public.evidences,public,evidences,73293824,40960,0,0,8159232,83927040,92086272
public.geo_hashed_storage_attachments_events,public,geo_hashed_storage_attachments_events,0,0,0,0,16384,8192,24576
public.geo_hashed_storage_migrated_events,public,geo_hashed_storage_migrated_events,0,0,0,0,16384,8192,24576
public.geo_nodes,public,geo_nodes,0,0,0,0,32768,8192,40960
public.geo_repository_updated_events,public,geo_repository_updated_events,0,0,0,0,24576,8192,32768
public.geo_node_namespace_links,public,geo_node_namespace_links,0,0,0,0,32768,0,32768
public.geo_repository_deleted_events,public,geo_repository_deleted_events,0,0,0,0,16384,8192,24576
public.geo_lfs_object_deleted_events,public,geo_lfs_object_deleted_events,0,0,0,0,16384,8192,24576
public.geo_repository_created_events,public,geo_repository_created_events,0,0,0,0,16384,8192,24576
public.geo_job_artifact_deleted_events,public,geo_job_artifact_deleted_events,0,0,0,0,16384,8192,24576
public.geo_repositories_changed_events,public,geo_repositories_changed_events,0,0,0,0,16384,0,16384
public.geo_repository_renamed_events,public,geo_repository_renamed_events,0,0,0,0,16384,8192,24576
public.geo_reset_checksum_events,public,geo_reset_checksum_events,0,0,0,0,16384,0,16384
public.gitlab_subscription_histories,public,gitlab_subscription_histories,7446528,24576,0,0,4358144,7471104,11829248
public.group_custom_attributes,public,group_custom_attributes,0,0,0,0,24576,8192,32768
public.grafana_integrations,public,grafana_integrations,32768,24576,0,0,49152,65536,114688
public.gpg_key_subkeys,public,gpg_key_subkeys,3350528,24576,0,0,7921664,3383296,11304960
public.group_group_links,public,group_group_links,212992,24576,0,0,344064,237568,581632
public.historical_data,public,historical_data,65536,24576,0,0,40960,90112,131072
public.gitlab_subscriptions,public,gitlab_subscriptions,354058240,106496,0,0,401653760,354164736,755818496
public.group_deletion_schedules,public,group_deletion_schedules,49152,24576,0,0,147456,73728,221184
public.identities,public,identities,177250304,65536,0,0,280584192,177324032,457908224
public.geo_upload_deleted_events,public,geo_upload_deleted_events,0,0,0,0,16384,8192,24576
public.gpg_signatures,public,gpg_signatures,1884880896,483328,0,0,2841403392,1885372416,4726775808
public.group_deploy_tokens,public,group_deploy_tokens,90112,24576,0,0,172032,114688,286720
public.gpg_keys,public,gpg_keys,14049280,24576,0,0,6135808,267165696,273301504
public.issue_assignees,public,issue_assignees,477036544,139264,0,0,815816704,477175808,1292992512
public.import_export_uploads,public,import_export_uploads,9928704,24576,0,0,16515072,9961472,26476544
public.issue_user_mentions,public,issue_user_mentions,129179648,49152,0,0,161873920,129236992,291110912
public.jira_connect_installations,public,jira_connect_installations,450560,24576,0,0,212992,483328,696320
public.issue_metrics,public,issue_metrics,1285906432,335872,0,0,2545655808,1286242304,3831898112
public.internal_ids,public,internal_ids,182501376,65536,0,0,381362176,182566912,563929088
public.import_failures,public,import_failures,3964928,24576,0,0,2211840,3997696,6209536
public.index_statuses,public,index_statuses,4292608,24576,0,0,1785856,4325376,6111232
public.issue_links,public,issue_links,32317440,24576,0,0,60719104,32342016,93061120
public.ip_restrictions,public,ip_restrictions,8192,0,0,0,32768,16384,49152
public.insights,public,insights,8192,0,0,0,49152,8192,57344
public.jira_connect_subscriptions,public,jira_connect_subscriptions,16384,24576,0,0,65536,40960,106496
public.issues_prometheus_alert_events,public,issues_prometheus_alert_events,114688,24576,0,0,155648,139264,294912
public.issues_self_managed_prometheus_alert_events,public,issues_self_managed_prometheus_alert_events,8192,0,0,0,32768,8192,40960
public.issue_tracker_data,public,issue_tracker_data,4063232,24576,0,0,1523712,4112384,5636096
public.list_user_preferences,public,list_user_preferences,22011904,24576,0,0,37330944,22036480,59367424
public.label_priorities,public,label_priorities,6160384,24576,0,0,11755520,6184960,17940480
public.keys,public,keys,2180308992,557056,0,0,823238656,2182709248,3005947904
public.label_links,public,label_links,2289360896,581632,0,0,3521331200,2289942528,5811273728
public.ldap_group_links,public,ldap_group_links,8192,0,0,0,16384,16384,32768
public.jira_imports,public,jira_imports,0,0,0,0,32768,8192,40960
public.lfs_objects,public,lfs_objects,4916584448,1228800,0,0,4391698432,4917821440,9309519872
public.lfs_objects_projects,public,lfs_objects_projects,2561015808,647168,0,0,4002234368,2561662976,6563897344
public.licenses,public,licenses,8192,0,0,0,16384,16384,32768
public.lfs_file_locks,public,lfs_file_locks,483328,24576,0,0,884736,516096,1400832
public.jira_tracker_data,public,jira_tracker_data,18341888,24576,0,0,3424256,18374656,21798912
public.merge_request_metrics,public,merge_request_metrics,3387662336,851968,0,0,8692940800,3388514304,12081455104
public.merge_request_user_mentions,public,merge_request_user_mentions,98705408,40960,0,0,145981440,98754560,244736000
public.merge_request_diff_commits,public,merge_request_diff_commits,689656086528,169549824,0,0,198486032384,706449711104,904935743488
public.merge_request_blocks,public,merge_request_blocks,548864,24576,0,0,933888,573440,1507328
public.merge_request_context_commit_diff_files,public,merge_request_context_commit_diff_files,0,0,0,0,16384,8192,24576
public.lists,public,lists,282763264,90112,0,0,625721344,282853376,908574720
public.members,public,members,1867767808,483328,0,0,3579109376,1868259328,5447368704
public.merge_request_diffs,public,merge_request_diffs,16769744896,4145152,0,0,6567059456,16773898240,23340957696
public.merge_request_context_commits,public,merge_request_context_commits,0,0,0,0,24576,8192,32768
public.merge_request_assignees,public,merge_request_assignees,623271936,172032,0,0,1924456448,623443968,2547900416
public.merge_requests_closing_issues,public,merge_requests_closing_issues,148668416,57344,0,0,218636288,148725760,367362048
public.merge_request_diff_files,public,merge_request_diff_files,928407625728,228237312,0,0,42162298880,1719696539648,1761858838528
public.note_diff_files,public,note_diff_files,9001639936,2236416,0,0,670801920,11915116544,12585918464
public.namespaces,public,namespaces,922320896,245760,0,0,3989848064,922574848,4912422912
public.notes,public,notes,194604957696,47857664,0,0,172388679680,206697840640,379086520320
public.milestone_releases,public,milestone_releases,24576,24576,0,0,90112,49152,139264
public.oauth_access_grants,public,oauth_access_grants,652869632,180224,0,0,555827200,653058048,1208885248
public.milestones,public,milestones,209756160,73728,0,0,296165376,231333888,527499264
public.namespace_statistics,public,namespace_statistics,28860416,24576,0,0,32473088,28884992,61358080
public.oauth_access_tokens,public,oauth_access_tokens,850796544,229376,0,0,1377476608,851034112,2228510720
public.notification_settings,public,notification_settings,1432502272,368640,0,0,2735529984,1432879104,4168409088
public.metrics_dashboard_annotations,public,metrics_dashboard_annotations,0,0,0,0,24576,8192,32768
public.namespace_root_storage_statistics,public,namespace_root_storage_statistics,102621184,49152,0,0,66240512,102670336,168910848
public.merge_trains,public,merge_trains,2023424,24576,0,0,3153920,2056192,5210112
public.namespace_aggregation_schedules,public,namespace_aggregation_schedules,671744,24576,0,0,1163264,696320,1859584
public.packages_conan_file_metadata,public,packages_conan_file_metadata,40960,24576,0,0,32768,73728,106496
public.oauth_applications,public,oauth_applications,11419648,24576,0,0,7995392,11509760,19505152
public.operations_feature_flags_clients,public,operations_feature_flags_clients,1376256,24576,0,0,1982464,1409024,3391488
public.operations_strategies,public,operations_strategies,8192,0,0,0,32768,16384,49152
public.packages_conan_metadata,public,packages_conan_metadata,8192,0,0,0,32768,16384,49152
public.packages_build_infos,public,packages_build_infos,2408448,24576,0,0,5308416,2433024,7741440
public.operations_feature_flag_scopes,public,operations_feature_flag_scopes,221184,24576,0,0,163840,253952,417792
public.operations_feature_flags,public,operations_feature_flags,90112,24576,0,0,155648,122880,278528
public.open_project_tracker_data,public,open_project_tracker_data,0,0,0,0,16384,8192,24576
public.packages_dependencies,public,packages_dependencies,679936,24576,0,0,942080,712704,1654784
public.operations_scopes,public,operations_scopes,8192,0,0,0,32768,8192,40960
public.pages_domains,public,pages_domains,5562368,24576,0,0,9068544,136970240,146038784
public.plans,public,plans,8192,0,0,0,32768,16384,49152
public.packages_maven_metadata,public,packages_maven_metadata,17195008,24576,0,0,16637952,17227776,33865728
public.personal_access_tokens,public,personal_access_tokens,393641984,114688,0,0,518103040,393945088,912048128
public.pool_repositories,public,pool_repositories,3203072,24576,0,0,5578752,3235840,8814592
public.packages_tags,public,packages_tags,90112,24576,0,0,180224,114688,294912
public.plan_limits,public,plan_limits,8192,0,0,0,32768,8192,40960
public.packages_packages,public,packages_packages,14082048,24576,0,0,47677440,14114816,61792256
public.path_locks,public,path_locks,983040,24576,0,0,1818624,1015808,2834432
public.pages_domain_acme_orders,public,pages_domain_acme_orders,491520,24576,0,0,294912,9093120,9388032
public.project_auto_devops,public,project_auto_devops,31694848,24576,0,0,33488896,31719424,65208320
public.project_feature_usages,public,project_feature_usages,1359872,24576,0,0,3260416,1384448,4644864
public.project_daily_statistics,public,project_daily_statistics,2383601664,606208,0,0,2723446784,2384207872,5107654656
public.project_incident_management_settings,public,project_incident_management_settings,24576,24576,0,0,32768,57344,90112
public.project_deploy_tokens,public,project_deploy_tokens,7102464,24576,0,0,14114816,7127040,21241856
public.programming_languages,public,programming_languages,24576,24576,0,0,32768,57344,90112
public.project_features,public,project_features,1215864832,319488,0,0,1800699904,1216184320,3016884224
public.project_ci_cd_settings,public,project_ci_cd_settings,584990720,163840,0,0,1012473856,585154560,1597628416
public.project_group_links,public,project_group_links,11583488,24576,0,0,15376384,11608064,26984448
public.project_import_data,public,project_import_data,105865216,49152,0,0,33890304,219537408,253427712
public.project_authorizations,public,project_authorizations,4002226176,1007616,0,0,6666346496,4003233792,10669580288
public.project_alerting_settings,public,project_alerting_settings,8192,0,0,0,16384,16384,32768
public.project_custom_attributes,public,project_custom_attributes,8192,0,0,0,49152,16384,65536
public.project_error_tracking_settings,public,project_error_tracking_settings,884736,24576,0,0,139264,917504,1056768
public.project_aliases,public,project_aliases,8192,0,0,0,49152,16384,65536
public.project_export_jobs,public,project_export_jobs,19439616,24576,0,0,48013312,19464192,67477504
public.project_repository_states,public,project_repository_states,830316544,221184,0,0,1090502656,830545920,1921048576
public.project_pages_metadata,public,project_pages_metadata,578609152,163840,0,0,518381568,578772992,1097154560
public.prometheus_alerts,public,prometheus_alerts,8192,0,0,0,65536,8192,73728
public.protected_branch_push_access_levels,public,protected_branch_push_access_levels,655876096,180224,0,0,1249730560,656056320,1905786880
public.project_statistics,public,project_statistics,1523556352,393216,0,0,1194491904,1523949568,2718441472
public.project_repositories,public,project_repositories,1646624768,425984,0,0,2945785856,1647058944,4592844800
public.projects,public,projects,3676807168,925696,0,0,16199647232,3678494720,19878141952
public.protected_branch_merge_access_levels,public,protected_branch_merge_access_levels,655843328,180224,0,0,1250230272,656023552,1906253824
public.project_mirror_data,public,project_mirror_data,224215040,73728,0,0,448110592,292814848,740925440
public.prometheus_alert_events,public,prometheus_alert_events,212992,24576,0,0,344064,245760,589824
public.protected_branch_unprotect_access_levels,public,protected_branch_unprotect_access_levels,1630208,24576,0,0,3866624,1654784,5521408
public.project_metrics_settings,public,project_metrics_settings,32768,24576,0,0,16384,65536,81920
public.prometheus_metrics,public,prometheus_metrics,172032,24576,0,0,196608,204800,401408
public.project_settings,public,project_settings,681803776,188416,0,0,521601024,681992192,1203593216
public.project_tracing_settings,public,project_tracing_settings,16384,24576,0,0,32768,49152,81920
public.repository_languages,public,repository_languages,798949376,212992,0,0,549478400,799162368,1348640768
public.protected_tag_create_access_levels,public,protected_tag_create_access_levels,1712128,24576,0,0,3194880,1736704,4931584
public.releases,public,releases,566763520,163840,0,0,102776832,712007680,814784512
public.protected_tags,public,protected_tags,1687552,24576,0,0,2695168,1720320,4415488
public.redirect_routes,public,redirect_routes,128557056,49152,0,0,286302208,128614400,414916608
public.protected_environments,public,protected_environments,876544,24576,0,0,1458176,909312,2367488
public.protected_branches,public,protected_branches,742891520,204800,0,0,777199616,743104512,1520304128
public.push_rules,public,push_rules,437837824,131072,0,0,401006592,437977088,838983680
public.push_event_payloads,public,push_event_payloads,62591205376,15400960,0,0,14042587136,62606614528,76649201664
public.protected_environment_deploy_access_levels,public,protected_environment_deploy_access_levels,983040,24576,0,0,1671168,1007616,2678784
public.release_links,public,release_links,4521984,24576,0,0,7757824,4554752,12312576
public.resource_weight_events,public,resource_weight_events,0,0,0,0,24576,0,24576
public.sentry_issues,public,sentry_issues,32768,24576,0,0,98304,57344,155648
public.routes,public,routes,2274639872,581632,0,0,4854194176,2275229696,7129423872
public.requirements,public,requirements,0,0,0,0,73728,8192,81920
public.schema_migrations,public,schema_migrations,114688,24576,0,0,98304,147456,245760
public.scim_identities,public,scim_identities,0,0,0,0,32768,0,32768
public.sent_notifications,public,sent_notifications,47647350784,11730944,0,0,39896449024,47659089920,87555538944
public.reviews,public,reviews,17801216,24576,0,0,36134912,17825792,53960704
public.saml_providers,public,saml_providers,114688,24576,0,0,81920,147456,229376
public.self_managed_prometheus_alert_events,public,self_managed_prometheus_alert_events,8192,0,0,0,49152,16384,65536
public.security_scans,public,security_scans,88662016,40960,0,0,148750336,88702976,237453312
public.resource_label_events,public,resource_label_events,19615645696,4841472,0,0,6490505216,19620667392,26111172608
public.resource_milestone_events,public,resource_milestone_events,0,0,0,0,40960,8192,49152
public.scim_oauth_access_tokens,public,scim_oauth_access_tokens,32768,24576,0,0,57344,65536,122880
public.snippet_user_mentions,public,snippet_user_mentions,24576,24576,0,0,65536,57344,122880
public.snippets,public,snippets,281305088,90112,0,0,684621824,1739071488,2423693312
public.serverless_domain_cluster,public,serverless_domain_cluster,0,0,0,0,32768,8192,40960
public.software_licenses,public,software_licenses,57344,24576,0,0,172032,90112,262144
public.slack_integrations,public,slack_integrations,3768320,24576,0,0,4882432,3801088,8683520
public.smartcard_identities,public,smartcard_identities,0,0,0,0,24576,8192,32768
public.service_desk_settings,public,service_desk_settings,49152,24576,0,0,49152,81920,131072
public.snippet_repositories,public,snippet_repositories,8192,0,0,0,49152,8192,57344
public.spam_logs,public,spam_logs,202317824,73728,0,0,12296192,465207296,477503488
public.services,public,services,663191552,180224,0,0,657711104,663379968,1321091072
public.shards,public,shards,8192,0,0,0,32768,16384,49152
public.status_page_settings,public,status_page_settings,8192,0,0,0,32768,16384,49152
public.suggestions,public,suggestions,70262784,40960,0,0,17080320,70590464,87670784
public.taggings,public,taggings,14116495360,3489792,0,0,53948399616,14119993344,68068392960
public.tags,public,tags,10780672,24576,0,0,28508160,10813440,39321600
public.system_note_metadata,public,system_note_metadata,12042567680,2981888,0,0,11059478528,12045557760,23105036288
public.subscriptions,public,subscriptions,34594816,32768,0,0,51396608,34627584,86024192
public.untracked_files_for_uploads,public,untracked_files_for_uploads,2039808,24576,0,0,3219456,2072576,5292032
public.todos,public,todos,4512849920,1130496,0,0,14159675392,4513988608,18673664000
public.term_agreements,public,term_agreements,257630208,81920,0,0,551165952,257712128,808878080
public.terraform_states,public,terraform_states,0,0,0,0,16384,0,16384
public.u2f_registrations,public,u2f_registrations,17645568,24576,0,0,4284416,17678336,21962752
public.timelogs,public,timelogs,123633664,49152,0,0,219578368,123682816,343261184
public.uploads,public,uploads,3140591616,794624,0,0,4388438016,3141394432,7529832448
public.user_agent_details,public,user_agent_details,3438600192,868352,0,0,1557389312,3439476736,4996866048
public.user_callouts,public,user_callouts,73482240,40960,0,0,141082624,73523200,214605824
public.user_highest_roles,public,user_highest_roles,248479744,81920,0,0,484933632,248561664,733495296
public.user_canonical_emails,public,user_canonical_emails,2809856,24576,0,0,6234112,2842624,9076736
public.users_ops_dashboard_projects,public,users_ops_dashboard_projects,909312,24576,0,0,1466368,933888,2400256
public.user_details,public,user_details,26189824,24576,0,0,12845056,26214400,39059456
public.users_star_projects,public,users_star_projects,28442624,24576,0,0,44564480,28467200,73031680
public.user_interacted_projects,public,user_interacted_projects,739835904,204800,0,0,1211088896,740040704,1951129600
public.user_synced_attributes_metadata,public,user_synced_attributes_metadata,0,0,0,0,16384,8192,24576
public.users_security_dashboard_projects,public,users_security_dashboard_projects,40960,24576,0,0,81920,65536,147456
public.user_statuses,public,user_statuses,8273920,24576,0,0,6127616,8306688,14434304
public.user_custom_attributes,public,user_custom_attributes,8192,0,0,0,49152,16384,65536
public.user_preferences,public,user_preferences,275546112,90112,0,0,232660992,275644416,508305408
public.users_statistics,public,users_statistics,0,0,0,0,8192,0,8192
public.vulnerability_feedback,public,vulnerability_feedback,1212416,24576,0,0,2277376,1245184,3522560
public.vulnerability_user_mentions,public,vulnerability_user_mentions,0,0,0,0,32768,8192,40960
public.vulnerability_occurrences,public,vulnerability_occurrences,3126288384,786432,0,0,764395520,3142221824,3906617344
public.vulnerability_occurrence_identifiers,public,vulnerability_occurrence_identifiers,192405504,65536,0,0,288514048,192471040,480985088
public.vulnerability_exports,public,vulnerability_exports,0,0,0,0,24576,8192,32768
public.vulnerability_occurrence_pipelines,public,vulnerability_occurrence_pipelines,3670720512,925696,0,0,5388353536,3671646208,9059999744
public.vulnerability_scanners,public,vulnerability_scanners,1089536,24576,0,0,1130496,1122304,2252800
public.vulnerability_identifiers,public,vulnerability_identifiers,105185280,49152,0,0,59932672,105242624,165175296
public.vulnerabilities,public,vulnerabilities,227704832,73728,0,0,357728256,227786752,585515008
public.web_hook_logs,public,web_hook_logs,121020194816,29761536,0,0,9411174400,172675899392,182087073792
public.vulnerability_issue_links,public,vulnerability_issue_links,0,0,0,0,32768,0,32768
public.x509_certificates,public,x509_certificates,8192,0,0,0,49152,16384,65536
public.x509_issuers,public,x509_issuers,8192,0,0,0,32768,16384,49152
public.zoom_meetings,public,zoom_meetings,8192,0,0,0,81920,8192,90112
public.wiki_page_meta,public,wiki_page_meta,0,0,0,0,16384,0,16384
public.x509_commit_signatures,public,x509_commit_signatures,114688,24576,0,0,253952,147456,401408
public.ci_runners,public,ci_runners,133595136,57344,0,0,145907712,133660672,279568384
public.users,public,users,2562793472,647168,0,0,5334056960,2566438912,7900495872
public.issues,public,issues,17472806912,4317184,0,0,27125284864,24647737344,51773022208
public.merge_requests,public,merge_requests,20903854080,5160960,0,0,35138805760,22967033856,58105839616
public.web_hooks,public,web_hooks,133316608,49152,0,0,46899200,133455872,180355072
public.ci_build_trace_sections,public,ci_build_trace_sections,184849399808,45457408,0,0,201214599168,184894857216,386109456384
public.remote_mirrors,public,remote_mirrors,22470656,24576,0,0,4710400,40689664,45400064
public.oauth_openid_requests,public,oauth_openid_requests,98304,24576,0,0,81920,131072,212992
public.application_setting_terms,public,application_setting_terms,16384,24576,0,0,16384,49152,65536
public.labels,public,labels,1139777536,303104,0,0,2331082752,1140531200,3471613952
public.packages_package_files,public,packages_package_files,225878016,73728,0,0,124436480,225959936,350396416
public.ci_trigger_requests,public,ci_trigger_requests,227098624,73728,0,0,372965376,227180544,600145920
public.design_management_designs_versions,public,design_management_designs_versions,434176,24576,0,0,1089536,458752,1548288
public.trending_projects,public,trending_projects,8192,0,0,0,32768,8192,40960
public.geo_node_statuses,public,geo_node_statuses,0,0,0,0,16384,8192,24576
public.wiki_page_slugs,public,wiki_page_slugs,0,0,0,0,32768,8192,40960
public.packages_dependency_links,public,packages_dependency_links,20299776,24576,0,0,46702592,20324352,67026944
public.software_license_policies,public,software_license_policies,221184,24576,0,0,425984,245760,671744
