current_database,schemaname,object_name,real_size,extra_size,extra_ratio,fillfactor,bloat_size,bloat_ratio,is_na
gitlabhq_production,public,abuse_reports,16384,0,0,100,0,0,f
gitlabhq_production,public,alerts_service_data,24576,0,0,100,0,0,f
gitlabhq_production,public,allowed_email_domains,24576,0,0,100,0,0,f
gitlabhq_production,public,analytics_cycle_analytics_group_stages,16384,8192,50,100,8192,50,f
gitlabhq_production,public,appearances,1818624,1810432,99.5495495495496,100,1810432,99.5495495495496,f
gitlabhq_production,public,application_setting_terms,24576,8192,33.3333333333333,100,8192,33.3333333333333,f
gitlabhq_production,public,approval_merge_request_rule_sources,123641856,6955008,5.62512422977539,100,6955008,5.62512422977539,f
gitlabhq_production,public,approval_merge_request_rules,498622464,7241728,1.4523469203345,100,7241728,1.4523469203345,f
gitlabhq_production,public,approval_merge_request_rules_approved_approvers,154402816,10338304,6.69567062818336,100,10338304,6.69567062818336,f
gitlabhq_production,public,approval_merge_request_rules_groups,39624704,1138688,2.87368203431879,100,1138688,2.87368203431879,f
gitlabhq_production,public,approval_merge_request_rules_users,919986176,5201920,0.565434583225737,100,5201920,0.565434583225737,f
gitlabhq_production,public,approval_project_rules,6717440,-81920,0,100,0,0,f
gitlabhq_production,public,approval_project_rules_groups,909312,8192,0.900900900900901,100,8192,0.900900900900901,f
gitlabhq_production,public,approval_project_rules_protected_branches,57344,0,0,100,0,0,f
gitlabhq_production,public,approval_project_rules_users,5529600,98304,1.77777777777778,100,98304,1.77777777777778,f
gitlabhq_production,public,approvals,302235648,4243456,1.40402233425489,100,4243456,1.40402233425489,f
gitlabhq_production,public,approver_groups,18284544,2269184,12.410394265233,100,2269184,12.410394265233,f
gitlabhq_production,public,approvers,273743872,31727616,11.5902561647115,100,31727616,11.5902561647115,f
gitlabhq_production,public,ar_internal_metadata,8192,0,0,100,0,0,f
gitlabhq_production,public,audit_events,70971293696,1575919616,2.22050287366936,100,1575919616,2.22050287366936,f
gitlabhq_production,public,award_emoji,306028544,26386432,8.62221270444629,100,26386432,8.62221270444629,f
gitlabhq_production,public,aws_roles,114688,8192,7.14285714285714,100,8192,7.14285714285714,f
gitlabhq_production,public,badges,8863744,409600,4.62107208872458,100,409600,4.62107208872458,f
gitlabhq_production,public,board_assignees,106496,0,0,100,0,0,f
gitlabhq_production,public,board_group_recent_visits,2736128,163840,5.98802395209581,100,163840,5.98802395209581,f
gitlabhq_production,public,board_labels,540672,16384,3.03030303030303,100,16384,3.03030303030303,f
gitlabhq_production,public,board_project_recent_visits,9863168,606208,6.14617940199336,100,606208,6.14617940199336,f
gitlabhq_production,public,boards,92930048,2637824,2.83850493653032,100,2637824,2.83850493653032,f
gitlabhq_production,public,chat_names,32768,0,0,100,0,0,f
gitlabhq_production,public,ci_build_needs,2831302656,106037248,3.74517530915635,100,106037248,3.74517530915635,f
gitlabhq_production,public,ci_build_trace_chunks,4546560,4472832,98.3783783783784,100,4472832,98.3783783783784,f
gitlabhq_production,public,ci_build_trace_section_names,718962688,70303744,9.77849687799098,100,70303744,9.77849687799098,f
gitlabhq_production,public,ci_build_trace_sections,184068702208,831332352,0.451642425913659,100,831332352,0.451642425913659,f
gitlabhq_production,public,ci_builds,668722438144,17254645760,2.58024028741869,100,17254645760,2.58024028741869,f
gitlabhq_production,public,ci_builds_metadata,22969147392,-1087045632,0,100,0,0,f
gitlabhq_production,public,ci_builds_runner_session,294912,81920,27.7777777777778,100,81920,27.7777777777778,f
gitlabhq_production,public,ci_daily_report_results,21061632,1867776,8.8681446907818,100,1867776,8.8681446907818,f
gitlabhq_production,public,ci_group_variables,81215488,-7856128,0,100,0,0,f
gitlabhq_production,public,ci_job_artifacts,68016250880,2529640448,3.71917066182169,100,2529640448,3.71917066182169,f
gitlabhq_production,public,ci_job_variables,4710400,1474560,31.304347826087,100,1474560,31.304347826087,f
gitlabhq_production,public,ci_pipeline_chat_data,24576,0,0,100,0,0,f
gitlabhq_production,public,ci_pipeline_schedule_variables,5570560,884736,15.8823529411765,100,884736,15.8823529411765,f
gitlabhq_production,public,ci_pipeline_schedules,13664256,9920512,72.6019184652278,100,9920512,72.6019184652278,f
gitlabhq_production,public,ci_pipeline_variables,11368325120,-188178432,0,100,0,0,f
gitlabhq_production,public,ci_pipelines,27976589312,2439094272,8.71834034091425,100,2439094272,8.71834034091425,f
gitlabhq_production,public,ci_pipelines_config,1919975424,19120128,0.995852746915161,100,19120128,0.995852746915161,f
gitlabhq_production,public,ci_refs,47996928,2940928,6.12732548216419,100,2940928,6.12732548216419,f
gitlabhq_production,public,ci_resource_groups,2465792,245760,9.96677740863787,100,245760,9.96677740863787,f
gitlabhq_production,public,ci_resources,1277952,-98304,0,100,0,0,f
gitlabhq_production,public,ci_runner_namespaces,7446528,245760,3.3003300330033,100,245760,3.3003300330033,f
gitlabhq_production,public,ci_runner_projects,27566080,507904,1.84249628528975,100,507904,1.84249628528975,f
gitlabhq_production,public,ci_runners,389980160,225714176,57.8783741203655,100,225714176,57.8783741203655,f
gitlabhq_production,public,ci_sources_pipelines,79962112,1073152,1.34207560700748,100,1073152,1.34207560700748,f
gitlabhq_production,public,ci_stages,20624596992,1265999872,6.13830113864074,100,1265999872,6.13830113864074,f
gitlabhq_production,public,ci_trigger_requests,236404736,13459456,5.69339524568577,100,13459456,5.69339524568577,f
gitlabhq_production,public,ci_triggers,7651328,1982464,25.9100642398287,100,1982464,25.9100642398287,f
gitlabhq_production,public,ci_variables,868802560,-93700096,0,100,0,0,f
gitlabhq_production,public,cluster_groups,188416,0,0,100,0,0,f
gitlabhq_production,public,cluster_platforms_kubernetes,85483520,-16261120,0,100,0,0,f
gitlabhq_production,public,cluster_projects,1499136,32768,2.18579234972678,100,32768,2.18579234972678,f
gitlabhq_production,public,cluster_providers_aws,122880,8192,6.66666666666667,100,8192,6.66666666666667,f
gitlabhq_production,public,cluster_providers_gcp,3383296,1204224,35.5932203389831,100,1204224,35.5932203389831,f
gitlabhq_production,public,clusters,5414912,1875968,34.6444780635401,100,1875968,34.6444780635401,f
gitlabhq_production,public,clusters_applications_cert_managers,483328,8192,1.69491525423729,100,8192,1.69491525423729,f
gitlabhq_production,public,clusters_applications_crossplane,24576,0,0,100,0,0,f
gitlabhq_production,public,clusters_applications_elastic_stacks,40960,0,0,100,0,0,f
gitlabhq_production,public,clusters_applications_helm,135544832,-974848,0,100,0,0,f
gitlabhq_production,public,clusters_applications_ingress,1925120,950272,49.3617021276596,100,950272,49.3617021276596,f
gitlabhq_production,public,clusters_applications_jupyter,65536,0,0,100,0,0,f
gitlabhq_production,public,clusters_applications_knative,90112,0,0,100,0,0,f
gitlabhq_production,public,clusters_applications_prometheus,966656,81920,8.47457627118644,100,81920,8.47457627118644,f
gitlabhq_production,public,clusters_applications_runners,942080,40960,4.34782608695652,100,40960,4.34782608695652,f
gitlabhq_production,public,clusters_kubernetes_namespaces,72663040,5087232,7.0011273957159,100,5087232,7.0011273957159,f
gitlabhq_production,public,commit_user_mentions,15294464,319488,2.08891269416176,100,319488,2.08891269416176,f
gitlabhq_production,public,container_expiration_policies,131391488,3137536,2.38792942203379,100,3137536,2.38792942203379,f
gitlabhq_production,public,conversational_development_index_metrics,16384,8192,50,100,8192,50,f
gitlabhq_production,public,dependency_proxy_blobs,16384,0,0,100,0,0,f
gitlabhq_production,public,dependency_proxy_group_settings,49152,0,0,100,0,0,f
gitlabhq_production,public,deploy_keys_projects,37773312,5029888,13.3159835176751,100,5029888,13.3159835176751,f
gitlabhq_production,public,deploy_tokens,39919616,16621568,41.6375949107326,100,16621568,41.6375949107326,f
gitlabhq_production,public,deployment_clusters,86122496,3047424,3.53847617235803,100,3047424,3.53847617235803,f
gitlabhq_production,public,deployment_merge_requests,695132160,-110936064,0,100,0,0,f
gitlabhq_production,public,deployments,9937354752,926949376,9.32792880130843,100,926949376,9.32792880130843,f
gitlabhq_production,public,description_versions,1456635904,-44318720,0,100,0,0,f
gitlabhq_production,public,design_management_designs,409600,16384,4,100,16384,4,f
gitlabhq_production,public,design_management_designs_versions,434176,0,0,100,0,0,f
gitlabhq_production,public,design_management_versions,376832,8192,2.17391304347826,100,8192,2.17391304347826,f
gitlabhq_production,public,design_user_mentions,122880,0,0,100,0,0,f
gitlabhq_production,public,draft_notes,16744448,778240,4.64774951076321,100,778240,4.64774951076321,f
gitlabhq_production,public,elasticsearch_indexed_namespaces,16384,0,0,100,0,0,f
gitlabhq_production,public,emails,25370624,3743744,14.7562156926057,100,3743744,14.7562156926057,f
gitlabhq_production,public,environments,206069760,5791744,2.81057443848142,100,5791744,2.81057443848142,f
gitlabhq_production,public,epic_issues,3432448,98304,2.86396181384248,100,98304,2.86396181384248,f
gitlabhq_production,public,epic_metrics,24576,0,0,100,0,0,f
gitlabhq_production,public,epic_user_mentions,475136,16384,3.44827586206897,100,16384,3.44827586206897,f
gitlabhq_production,public,epics,36560896,9584640,26.2155500784226,100,9584640,26.2155500784226,f
gitlabhq_production,public,events,44363350016,-2280898560,0,100,0,0,f
gitlabhq_production,public,evidences,83795968,1236992,1.4761951314889,100,1236992,1.4761951314889,f
gitlabhq_production,public,external_pull_requests,15376384,819200,5.3276505061268,100,819200,5.3276505061268,f
gitlabhq_production,public,feature_gates,57344,16384,28.5714285714286,100,16384,28.5714285714286,f
gitlabhq_production,public,features,24576,8192,33.3333333333333,100,8192,33.3333333333333,f
gitlabhq_production,public,fork_network_members,29302784,794624,2.71176963936259,100,794624,2.71176963936259,f
gitlabhq_production,public,fork_networks,8863744,-1261568,0,100,0,0,f
gitlabhq_production,public,geo_hashed_storage_attachments_events,0,0,0,100,0,0,f
gitlabhq_production,public,geo_job_artifact_deleted_events,0,0,0,100,0,0,f
gitlabhq_production,public,geo_lfs_object_deleted_events,0,0,0,100,0,0,f
gitlabhq_production,public,geo_repository_created_events,0,0,0,100,0,0,f
gitlabhq_production,public,geo_repository_deleted_events,0,0,0,100,0,0,f
gitlabhq_production,public,geo_repository_renamed_events,0,0,0,100,0,0,f
gitlabhq_production,public,geo_repository_updated_events,0,0,0,100,0,0,f
gitlabhq_production,public,geo_reset_checksum_events,0,0,0,100,0,0,f
gitlabhq_production,public,geo_upload_deleted_events,0,0,0,100,0,0,f
gitlabhq_production,public,gitlab_subscription_histories,7430144,-180224,0,100,0,0,f
gitlabhq_production,public,gitlab_subscriptions,355344384,3670016,1.03280540378542,100,3670016,1.03280540378542,f
gitlabhq_production,public,gpg_key_subkeys,3375104,32768,0.970873786407767,100,32768,0.970873786407767,f
gitlabhq_production,public,gpg_keys,266854400,1040384,0.389869531849578,100,1040384,0.389869531849578,f
gitlabhq_production,public,gpg_signatures,1892433920,101310464,5.3534479026882,100,101310464,5.3534479026882,f
gitlabhq_production,public,grafana_integrations,32768,0,0,100,0,0,f
gitlabhq_production,public,group_deletion_schedules,49152,0,0,100,0,0,f
gitlabhq_production,public,group_deploy_tokens,90112,0,0,100,0,0,f
gitlabhq_production,public,group_group_links,221184,8192,3.7037037037037,100,8192,3.7037037037037,f
gitlabhq_production,public,historical_data,73728,8192,11.1111111111111,100,8192,11.1111111111111,f
gitlabhq_production,public,identities,177373184,-1228800,0,100,0,0,f
gitlabhq_production,public,import_export_uploads,15056896,5521408,36.6702937976061,100,5521408,36.6702937976061,f
gitlabhq_production,public,import_failures,6807552,2949120,43.3212996389892,100,2949120,43.3212996389892,f
gitlabhq_production,public,index_statuses,4489216,491520,10.9489051094891,100,491520,10.9489051094891,f
gitlabhq_production,public,insights,8192,0,0,100,0,0,f
gitlabhq_production,public,internal_ids,203988992,25092096,12.3007108148267,100,25092096,12.3007108148267,f
gitlabhq_production,public,ip_restrictions,8192,0,0,100,0,0,f
gitlabhq_production,public,issue_assignees,484368384,10240000,2.11409339218969,100,10240000,2.11409339218969,f
gitlabhq_production,public,issue_links,46784512,22781952,48.6954999124497,100,22781952,48.6954999124497,f
gitlabhq_production,public,issue_metrics,1338843136,41508864,3.10035304987365,100,41508864,3.10035304987365,f
gitlabhq_production,public,issue_tracker_data,4743168,770048,16.2348877374784,100,770048,16.2348877374784,f
gitlabhq_production,public,issue_user_mentions,139632640,11796480,8.44822528600763,100,11796480,8.44822528600763,f
gitlabhq_production,public,issues,25452052480,328056832,1.28892093184934,100,328056832,1.28892093184934,f
gitlabhq_production,public,issues_prometheus_alert_events,122880,16384,13.3333333333333,100,16384,13.3333333333333,f
gitlabhq_production,public,issues_self_managed_prometheus_alert_events,8192,0,0,100,0,0,f
gitlabhq_production,public,jira_connect_installations,458752,16384,3.57142857142857,100,16384,3.57142857142857,f
gitlabhq_production,public,jira_connect_subscriptions,16384,0,0,100,0,0,f
gitlabhq_production,public,jira_tracker_data,18563072,1310720,7.06090026478376,100,1310720,7.06090026478376,f
gitlabhq_production,public,keys,2200944640,97378304,4.42438679420851,100,97378304,4.42438679420851,f
gitlabhq_production,public,label_links,2303688704,81117184,3.52118686258054,100,81117184,3.52118686258054,f
gitlabhq_production,public,label_priorities,6389760,253952,3.97435897435897,100,253952,3.97435897435897,f
gitlabhq_production,public,labels,1144823808,41345024,3.6114748584963,100,41345024,3.6114748584963,f
gitlabhq_production,public,ldap_group_links,8192,0,0,100,0,0,f
gitlabhq_production,public,lfs_file_locks,1900544,1433600,75.4310344827586,100,1433600,75.4310344827586,f
gitlabhq_production,public,lfs_objects,4971216896,332128256,6.68102524891322,100,332128256,6.68102524891322,f
gitlabhq_production,public,lfs_objects_projects,2589728768,31334400,1.20994910305603,100,31334400,1.20994910305603,f
gitlabhq_production,public,licenses,8192,0,0,100,0,0,f
gitlabhq_production,public,list_user_preferences,22863872,950272,4.15621640988893,100,950272,4.15621640988893,f
gitlabhq_production,public,lists,487882752,217759744,44.6336221371482,100,217759744,44.6336221371482,f
gitlabhq_production,public,members,1886978048,127680512,6.76640155593373,100,127680512,6.76640155593373,f
gitlabhq_production,public,merge_request_assignees,626352128,21544960,3.43975202396055,100,21544960,3.43975202396055,f
gitlabhq_production,public,merge_request_blocks,557056,8192,1.47058823529412,100,8192,1.47058823529412,f
gitlabhq_production,public,merge_request_diff_commits,704988225536,3311206400,0.469682511006833,100,3311206400,0.469682511006833,f
gitlabhq_production,public,merge_request_diff_files,1862216105984,150889218048,8.10266958615255,100,150889218048,8.10266958615255,f
gitlabhq_production,public,merge_request_diffs,17059340288,1135255552,6.65474474882578,100,1135255552,6.65474474882578,f
gitlabhq_production,public,merge_request_metrics,3517513728,316334080,8.99311571926294,100,316334080,8.99311571926294,f
gitlabhq_production,public,merge_request_user_mentions,108158976,8314880,7.68764674695145,100,8314880,7.68764674695145,f
gitlabhq_production,public,merge_requests,24082964480,1644658688,6.8291372076134,100,1644658688,6.8291372076134,f
gitlabhq_production,public,merge_requests_closing_issues,154755072,6258688,4.04425387750781,100,6258688,4.04425387750781,f
gitlabhq_production,public,merge_trains,2064384,57344,2.77777777777778,100,57344,2.77777777777778,f
gitlabhq_production,public,milestone_releases,24576,0,0,100,0,0,f
gitlabhq_production,public,milestones,233504768,13623296,5.83426887454392,100,13623296,5.83426887454392,f
gitlabhq_production,public,namespace_aggregation_schedules,1589248,925696,58.2474226804124,100,925696,58.2474226804124,f
gitlabhq_production,public,namespace_root_storage_statistics,107380736,5505024,5.12664021971315,100,5505024,5.12664021971315,f
gitlabhq_production,public,namespace_statistics,37117952,8290304,22.3350253807107,100,8290304,22.3350253807107,f
gitlabhq_production,public,namespaces,1044840448,194838528,18.6476823684376,100,194838528,18.6476823684376,f
gitlabhq_production,public,note_diff_files,11850866688,-187711488,0,100,0,0,f
gitlabhq_production,public,notes,208121061376,1678737408,0.806615821051924,100,1678737408,0.806615821051924,f
gitlabhq_production,public,notification_settings,1435074560,27295744,1.90204361228451,100,27295744,1.90204361228451,f
gitlabhq_production,public,oauth_access_grants,666640384,15876096,2.38150828858277,100,15876096,2.38150828858277,f
gitlabhq_production,public,oauth_access_tokens,863485952,46202880,5.35073904711307,100,46202880,5.35073904711307,f
gitlabhq_production,public,oauth_applications,20168704,8749056,43.3793663688058,100,8749056,43.3793663688058,f
gitlabhq_production,public,oauth_openid_requests,147456,49152,33.3333333333333,100,49152,33.3333333333333,f
gitlabhq_production,public,operations_feature_flag_scopes,221184,8192,3.7037037037037,100,8192,3.7037037037037,f
gitlabhq_production,public,operations_feature_flags,147456,65536,44.4444444444444,100,65536,44.4444444444444,f
gitlabhq_production,public,operations_feature_flags_clients,1925120,344064,17.8723404255319,100,344064,17.8723404255319,f
gitlabhq_production,public,operations_scopes,8192,0,0,100,0,0,f
gitlabhq_production,public,operations_strategies,8192,0,0,100,0,0,f
gitlabhq_production,public,packages_build_infos,2498560,98304,3.9344262295082,100,98304,3.9344262295082,f
gitlabhq_production,public,packages_conan_file_metadata,81920,40960,50,100,40960,50,f
gitlabhq_production,public,packages_conan_metadata,8192,0,0,100,0,0,f
gitlabhq_production,public,packages_dependencies,671744,-16384,0,100,0,0,f
gitlabhq_production,public,packages_dependency_links,20381696,114688,0.562700964630225,100,114688,0.562700964630225,f
gitlabhq_production,public,packages_maven_metadata,17391616,778240,4.47479981158738,100,778240,4.47479981158738,f
gitlabhq_production,public,packages_package_files,229957632,10174464,4.42449503045848,100,10174464,4.42449503045848,f
gitlabhq_production,public,packages_packages,14581760,1556480,10.6741573033708,100,1556480,10.6741573033708,f
gitlabhq_production,public,packages_tags,90112,8192,9.09090909090909,100,8192,9.09090909090909,f
gitlabhq_production,public,pages_domain_acme_orders,8904704,-991232,0,100,0,0,f
gitlabhq_production,public,pages_domains,271335424,44130304,16.2641144858402,100,44130304,16.2641144858402,f
gitlabhq_production,public,path_locks,1007616,0,0,100,0,0,f
gitlabhq_production,public,personal_access_tokens,654417920,251822080,38.4803154534644,100,251822080,38.4803154534644,f
gitlabhq_production,public,plan_limits,8192,0,0,100,0,0,f
gitlabhq_production,public,plans,8192,0,0,100,0,0,f
gitlabhq_production,public,pool_repositories,3506176,417792,11.9158878504673,100,417792,11.9158878504673,f
gitlabhq_production,public,programming_languages,24576,0,0,100,0,0,f
gitlabhq_production,public,project_alerting_settings,8192,0,0,100,0,0,f
gitlabhq_production,public,project_aliases,8192,0,0,100,0,0,f
gitlabhq_production,public,project_authorizations,4072259584,86417408,2.12209968980209,100,86417408,2.12209968980209,f
gitlabhq_production,public,project_auto_devops,32284672,647168,2.00456736868815,100,647168,2.00456736868815,f
gitlabhq_production,public,project_ci_cd_settings,622944256,55566336,8.91995318438252,100,55566336,8.91995318438252,f
gitlabhq_production,public,project_custom_attributes,8192,0,0,100,0,0,f
gitlabhq_production,public,project_daily_statistics,2530951168,148676608,5.87433727998343,100,148676608,5.87433727998343,f
gitlabhq_production,public,project_deploy_tokens,7135232,57344,0.803673938002296,100,57344,0.803673938002296,f
gitlabhq_production,public,project_error_tracking_settings,884736,0,0,100,0,0,f
gitlabhq_production,public,project_export_jobs,19677184,425984,2.16486261448793,100,425984,2.16486261448793,f
gitlabhq_production,public,project_feature_usages,18079744,15622144,86.4068871771636,100,15622144,86.4068871771636,f
gitlabhq_production,public,project_features,1140883456,-48488448,0,100,0,0,f
gitlabhq_production,public,project_group_links,11984896,581632,4.85304169514696,100,581632,4.85304169514696,f
gitlabhq_production,public,project_import_data,219586560,-368640,0,100,0,0,f
gitlabhq_production,public,project_incident_management_settings,24576,0,0,100,0,0,f
gitlabhq_production,public,project_metrics_settings,40960,8192,20,100,8192,20,f
gitlabhq_production,public,project_mirror_data,2295529472,2044051456,89.044879664259,100,2044051456,89.044879664259,f
gitlabhq_production,public,project_pages_metadata,592855040,16629760,2.80502970844272,100,16629760,2.80502970844272,f
gitlabhq_production,public,project_repositories,1648181248,24199168,1.46823463920395,100,24199168,1.46823463920395,f
gitlabhq_production,public,project_repository_states,877142016,92258304,10.5180577736684,100,92258304,10.5180577736684,f
gitlabhq_production,public,project_settings,692551680,14376960,2.07594038325053,100,14376960,2.07594038325053,f
gitlabhq_production,public,project_statistics,1628905472,132153344,8.11301492146992,100,132153344,8.11301492146992,f
gitlabhq_production,public,project_tracing_settings,16384,0,0,100,0,0,f
gitlabhq_production,public,projects,4099866624,457383936,11.1560686711744,100,457383936,11.1560686711744,f
gitlabhq_production,public,prometheus_alert_events,212992,0,0,100,0,0,f
gitlabhq_production,public,prometheus_alerts,8192,0,0,100,0,0,f
gitlabhq_production,public,prometheus_metrics,172032,8192,4.76190476190476,100,8192,4.76190476190476,f
gitlabhq_production,public,protected_branch_merge_access_levels,665894912,22216704,3.33636788622887,100,22216704,3.33636788622887,f
gitlabhq_production,public,protected_branch_push_access_levels,682975232,43253760,6.33313742188531,100,43253760,6.33313742188531,f
gitlabhq_production,public,protected_branch_unprotect_access_levels,1736704,147456,8.49056603773585,100,147456,8.49056603773585,f
gitlabhq_production,public,protected_branches,755105792,105291776,13.9439767401493,100,105291776,13.9439767401493,f
gitlabhq_production,public,protected_environment_deploy_access_levels,991232,122880,12.396694214876,100,122880,12.396694214876,f
gitlabhq_production,public,protected_environments,892928,73728,8.25688073394495,100,73728,8.25688073394495,f
gitlabhq_production,public,protected_tag_create_access_levels,1875968,196608,10.4803493449782,100,196608,10.4803493449782,f
gitlabhq_production,public,protected_tags,1785856,155648,8.71559633027523,100,155648,8.71559633027523,f
gitlabhq_production,public,push_event_payloads,59809873920,-329531392,0,100,0,0,f
gitlabhq_production,public,push_rules,440107008,37462016,8.51202442111533,100,37462016,8.51202442111533,f
gitlabhq_production,public,redirect_routes,130777088,1622016,1.24029065397144,100,1622016,1.24029065397144,f
gitlabhq_production,public,release_links,4726784,229376,4.8526863084922,100,229376,4.8526863084922,f
gitlabhq_production,public,releases,723976192,27377664,3.78156965692043,100,27377664,3.78156965692043,f
gitlabhq_production,public,remote_mirrors,79560704,19079168,23.9806425041186,100,19079168,23.9806425041186,f
gitlabhq_production,public,repository_languages,836083712,40140800,4.80105035224033,100,40140800,4.80105035224033,f
gitlabhq_production,public,resource_label_events,19728261120,942374912,4.7767763528061,100,942374912,4.7767763528061,f
gitlabhq_production,public,reviews,17874944,98304,0.549954170485793,100,98304,0.549954170485793,f
gitlabhq_production,public,routes,2291408896,169336832,7.39007482669737,100,169336832,7.39007482669737,f
gitlabhq_production,public,saml_providers,188416,73728,39.1304347826087,100,73728,39.1304347826087,f
gitlabhq_production,public,schema_migrations,114688,0,0,100,0,0,f
gitlabhq_production,public,scim_oauth_access_tokens,32768,0,0,100,0,0,f
gitlabhq_production,public,security_scans,91463680,4366336,4.77384684281236,100,4366336,4.77384684281236,f
gitlabhq_production,public,self_managed_prometheus_alert_events,8192,0,0,100,0,0,f
gitlabhq_production,public,sent_notifications,47557099520,3372097536,7.09062909646513,100,3372097536,7.09062909646513,f
gitlabhq_production,public,sentry_issues,32768,0,0,100,0,0,f
gitlabhq_production,public,service_desk_settings,49152,0,0,100,0,0,f
gitlabhq_production,public,services,1817518080,1183268864,65.1035539629955,100,1183268864,65.1035539629955,f
gitlabhq_production,public,shards,8192,0,0,100,0,0,f
gitlabhq_production,public,slack_integrations,3809280,139264,3.65591397849462,100,139264,3.65591397849462,f
gitlabhq_production,public,snippet_repositories,8192,0,0,100,0,0,f
gitlabhq_production,public,snippet_user_mentions,24576,0,0,100,0,0,f
gitlabhq_production,public,snippets,1830420480,66322432,3.62334407447189,100,66322432,3.62334407447189,f
gitlabhq_production,public,software_license_policies,425984,204800,48.0769230769231,100,204800,48.0769230769231,f
gitlabhq_production,public,software_licenses,253952,196608,77.4193548387097,100,196608,77.4193548387097,f
gitlabhq_production,public,spam_logs,467705856,19800064,4.23344367961046,100,19800064,4.23344367961046,f
gitlabhq_production,public,subscriptions,35053568,4939776,14.0920775882215,100,4939776,14.0920775882215,f
gitlabhq_production,public,suggestions,71270400,3080192,4.32183908045977,100,3080192,4.32183908045977,f
gitlabhq_production,public,system_note_metadata,12065374208,-395468800,0,100,0,0,f
gitlabhq_production,public,taggings,14110449664,32874496,0.232979790033713,100,32874496,0.232979790033713,f
gitlabhq_production,public,tags,11067392,688128,6.21761658031088,100,688128,6.21761658031088,f
gitlabhq_production,public,term_agreements,264863744,7741440,2.92280094024496,100,7741440,2.92280094024496,f
gitlabhq_production,public,timelogs,148398080,35823616,24.1402152911951,100,35823616,24.1402152911951,f
gitlabhq_production,public,todos,4584112128,392724480,8.56707840109796,100,392724480,8.56707840109796,f
gitlabhq_production,public,trending_projects,8192,0,0,100,0,0,f
gitlabhq_production,public,u2f_registrations,17924096,786432,4.38756855575868,100,786432,4.38756855575868,f
gitlabhq_production,public,untracked_files_for_uploads,2039808,16384,0.803212851405622,100,16384,0.803212851405622,f
gitlabhq_production,public,uploads,3147685888,243105792,7.723318039033,100,243105792,7.723318039033,f
gitlabhq_production,public,user_agent_details,3438051328,21962752,0.638813964792558,100,21962752,0.638813964792558,f
gitlabhq_production,public,user_callouts,80396288,13271040,16.507030772366,100,13271040,16.507030772366,f
gitlabhq_production,public,user_canonical_emails,2809856,98304,3.49854227405248,100,98304,3.49854227405248,f
gitlabhq_production,public,user_custom_attributes,8192,0,0,100,0,0,f
gitlabhq_production,public,user_details,26853376,761856,2.83709579011592,100,761856,2.83709579011592,f
gitlabhq_production,public,user_highest_roles,605560832,345432064,57.0433300415308,100,345432064,57.0433300415308,f
gitlabhq_production,public,user_interacted_projects,764534784,28524544,3.73096745850611,100,28524544,3.73096745850611,f
gitlabhq_production,public,user_preferences,310673408,32808960,10.5605948739584,100,32808960,10.5605948739584,f
gitlabhq_production,public,user_statuses,8519680,491520,5.76923076923077,100,491520,5.76923076923077,f
gitlabhq_production,public,users,2640666624,343810048,13.0198202558113,100,343810048,13.0198202558113,f
gitlabhq_production,public,users_ops_dashboard_projects,917504,8192,0.892857142857143,100,8192,0.892857142857143,f
gitlabhq_production,public,users_security_dashboard_projects,73728,32768,44.4444444444444,100,32768,44.4444444444444,f
gitlabhq_production,public,users_star_projects,28884992,565248,1.95689166193988,100,565248,1.95689166193988,f
gitlabhq_production,public,vulnerabilities,373440512,151150592,40.4751458781205,100,151150592,40.4751458781205,f
gitlabhq_production,public,vulnerability_feedback,1220608,73728,6.04026845637584,100,73728,6.04026845637584,f
gitlabhq_production,public,vulnerability_identifiers,106766336,1081344,1.01281362694698,100,1081344,1.01281362694698,f
gitlabhq_production,public,vulnerability_occurrence_identifiers,193986560,3801088,1.95945945945946,100,3801088,1.95945945945946,f
gitlabhq_production,public,vulnerability_occurrence_pipelines,3671515136,17473536,0.475921665926642,100,17473536,0.475921665926642,f
gitlabhq_production,public,vulnerability_occurrences,3152240640,147152896,4.66819995062306,100,147152896,4.66819995062306,f
gitlabhq_production,public,vulnerability_scanners,1089536,16384,1.50375939849624,100,16384,1.50375939849624,f
gitlabhq_production,public,web_hook_logs,172971950080,-4497219584,0,100,0,0,f
gitlabhq_production,public,web_hooks,135593984,5791744,4.27138714354761,100,5791744,4.27138714354761,f
gitlabhq_production,public,x509_certificates,8192,0,0,100,0,0,f
gitlabhq_production,public,x509_commit_signatures,114688,0,0,100,0,0,f
gitlabhq_production,public,x509_issuers,8192,0,0,100,0,0,f
gitlabhq_production,public,zoom_meetings,8192,0,0,100,0,0,f
